/* XPM */
static char * closeA_xpm[] = {
"21 46 141 2",
"  	c #F4F2F2",
". 	c #F8F7F7",
"+ 	c #D9D5D4",
"@ 	c #D6D2D0",
"# 	c #D5D1CF",
"$ 	c #D4D0CE",
"% 	c #CECAC8",
"& 	c #C9C6C4",
"* 	c #D1CFCE",
"= 	c #DAD8D8",
"- 	c #D1CDCB",
"; 	c #C4C1C0",
"> 	c #E7E6E4",
", 	c #FCFBFA",
"' 	c #FDFCFB",
") 	c #FAFAFA",
"! 	c #E6E4E3",
"~ 	c #C3C0BF",
"{ 	c #D0CCCA",
"] 	c #C0BEBD",
"^ 	c #F3F2F1",
"/ 	c #F7F7F6",
"( 	c #F5F5F4",
"_ 	c #F5F4F3",
": 	c #F2F1F1",
"< 	c #BFBCBB",
"[ 	c #D3CFCD",
"} 	c #BAB7B4",
"| 	c #ECE9E9",
"1 	c #EEEDEC",
"2 	c #EFEEED",
"3 	c #EAEAE9",
"4 	c #B9B6B3",
"5 	c #C6C3C1",
"6 	c #CCCAC8",
"7 	c #EFEEEE",
"8 	c #EAE8E7",
"9 	c #696665",
"0 	c #7D7B79",
"a 	c #E9E7E6",
"b 	c #8B8987",
"c 	c #5B5857",
"d 	c #C8C6C5",
"e 	c #B4B1AE",
"f 	c #E3E2E0",
"g 	c #E7E5E2",
"h 	c #E4E2E0",
"i 	c #D5D4D3",
"j 	c #3A3736",
"k 	c #7A7775",
"l 	c #E3E1DF",
"m 	c #888684",
"n 	c #322F2F",
"o 	c #CECCCB",
"p 	c #E7E4E3",
"q 	c #E1E0DE",
"r 	c #A7A3A1",
"s 	c #E9E8E6",
"t 	c #DFDCDA",
"u 	c #EBE9E7",
"v 	c #E1E1E1",
"w 	c #4F4C4A",
"x 	c #322F2E",
"y 	c #D8D7D7",
"z 	c #EDEBEA",
"A 	c #E0DDDB",
"B 	c #CCC9C7",
"C 	c #A6A3A1",
"D 	c #E3E1DE",
"E 	c #D9D7D4",
"F 	c #868584",
"G 	c #242120",
"H 	c #757271",
"I 	c #A5A2A0",
"J 	c #9F9B99",
"K 	c #DEDBD9",
"L 	c #D5D2CF",
"M 	c #D4D1CE",
"N 	c #7F7D7A",
"O 	c #C3C2C2",
"P 	c #3B3836",
"Q 	c #736F6D",
"R 	c #D3D0CD",
"S 	c #D6D3CF",
"T 	c #DCDAD8",
"U 	c #A7A4A1",
"V 	c #C5C3BF",
"W 	c #D2D0CB",
"X 	c #CECBC7",
"Y 	c #83807D",
"Z 	c #312E2D",
"` 	c #D7D6D6",
" .	c #E0E0E0",
"..	c #393534",
"+.	c #757370",
"@.	c #D4D0CD",
"#.	c #C4C1BF",
"$.	c #D3D0CE",
"%.	c #B6B2B1",
"&.	c #989392",
"*.	c #D6D3D0",
"=.	c #C9C5C1",
"-.	c #989593",
";.	c #D8D7D6",
">.	c #E1DFDC",
",.	c #DDDBD8",
"'.	c #959290",
").	c #959190",
"!.	c #C7C3C1",
"~.	c #9C9997",
"{.	c #A2A09E",
"].	c #D0CECB",
"^.	c #E6E4E2",
"/.	c #DDDBD9",
"(.	c #C3BFBB",
"_.	c #D1CECB",
":.	c #A29F9D",
"<.	c #8F8C8A",
"[.	c #9E9A98",
"}.	c #CAC7C4",
"|.	c #C5C0BE",
"1.	c #C1BBB8",
"2.	c #BEB9B5",
"3.	c #C0BBB8",
"4.	c #C6C1BE",
"5.	c #9B9895",
"6.	c #B6B3B2",
"7.	c #94908E",
"8.	c #868280",
"9.	c #A8A5A3",
"0.	c #C0BDBB",
"a.	c #B9B5B4",
"b.	c #A8A4A2",
"c.	c #848280",
"d.	c #D2CECC",
"e.	c #C1BEBC",
"f.	c #A9A6A4",
"g.	c #888482",
"h.	c #D0CDCB",
"i.	c #BEBBB9",
"j.	c #BAB7B5",
"                                        . ",
"+ + + + + + + + + + + + + + + + + + + + + ",
"@ @ @ @ @ @ @ @ @ # $ # @ @ @ @ @ @ @ @ @ ",
"@ @ @ @ @ @ $ % & * = * & % $ @ @ @ @ @ @ ",
"@ @ @ @ @ - ; > , ' ) ' , ! ~ - @ @ @ @ @ ",
"@ @ @ @ { ] ^ / ( _ _ _ ( / : < { @ @ @ @ ",
"@ @ @ [ } | : 1 2 2 2 2 2 1 ^ 3 4 [ @ @ @ ",
"@ @ @ 5 6 7 8 9 0 a 8 8 b c 8 7 d 5 @ @ @ ",
"@ @ $ e f g h i j k l m n o h p q e $ @ @ ",
"@ @ - r s t t u v j w x y z t A a r - @ @ ",
"@ @ B C D E E E > F G H s E E E l I B @ @ ",
"@ @ B J K L M M N n O P Q R M S T J B @ @ ",
"@ @ - U V W X Y Z ` 1  ...+.X @.#.U - @ @ ",
"@ @ $.%.&.*.=.-.;.>.=.,. .'.=.*.).%.$.@ @ ",
"@ @ @ !.~.{.].^./.(.(.(.E s _.:.~.!.@ @ @ ",
"@ @ @ $ } <.[.}.|.1.2.3.4.}.5.<.} $ @ @ @ ",
"@ @ @ @ - 6.7.8.9.0.a.0.b.c.7.6.- @ @ @ @ ",
"@ @ @ @ @ d.e.f.7.g.m g.7.f.e.d.@ @ @ @ @ ",
"@ @ @ @ @ @ # h.5 i.j.i.5 h.# @ @ @ @ @ @ ",
"@ @ @ @ @ @ @ @ @ @ @ @ @ @ @ @ @ @ @ @ @ ",
"@ @ @ @ @ @ @ @ @ @ @ @ @ @ @ @ @ @ @ @ @ ",
"@ @ @ @ @ @ @ @ @ @ @ @ @ @ @ @ @ @ @ @ @ ",
"@ @ @ @ @ @ @ @ @ @ @ @ @ @ @ @ @ @ @ @ @ ",
"                                        . ",
"+ + + + + + + + + + + + + + + + + + + + + ",
"@ @ @ @ @ @ @ @ @ # $ # @ @ @ @ @ @ @ @ @ ",
"@ @ @ @ @ @ $ % & * = * & % $ @ @ @ @ @ @ ",
"@ @ @ @ @ - ; > , ' ) ' , ! ~ - @ @ @ @ @ ",
"@ @ @ @ { ] ^ / ( _ _ _ ( / : < { @ @ @ @ ",
"@ @ @ [ } | : 1 2 2 2 2 2 1 ^ 3 4 [ @ @ @ ",
"@ @ @ 5 6 7 8 9 0 a 8 8 b c 8 7 d 5 @ @ @ ",
"@ @ $ e f g h i j k l m n o h p q e $ @ @ ",
"@ @ - r s t t u v j w x y z t A a r - @ @ ",
"@ @ B C D E E E > F G H s E E E l I B @ @ ",
"@ @ B J K L M M N n O P Q R M S T J B @ @ ",
"@ @ - U V W X Y Z ` 1  ...+.X @.#.U - @ @ ",
"@ @ $.%.&.*.=.-.;.>.=.,. .'.=.*.).%.$.@ @ ",
"@ @ @ !.~.{.].^./.(.(.(.E s _.:.~.!.@ @ @ ",
"@ @ @ $ } <.[.}.|.1.2.3.4.}.5.<.} $ @ @ @ ",
"@ @ @ @ - 6.7.8.9.0.a.0.b.c.7.6.- @ @ @ @ ",
"@ @ @ @ @ d.e.f.7.g.m g.7.f.e.d.@ @ @ @ @ ",
"@ @ @ @ @ @ # h.5 i.j.i.5 h.# @ @ @ @ @ @ ",
"@ @ @ @ @ @ @ @ @ @ @ @ @ @ @ @ @ @ @ @ @ ",
"@ @ @ @ @ @ @ @ @ @ @ @ @ @ @ @ @ @ @ @ @ ",
"@ @ @ @ @ @ @ @ @ @ @ @ @ @ @ @ @ @ @ @ @ ",
"@ @ @ @ @ @ @ @ @ @ @ @ @ @ @ @ @ @ @ @ @ "};
