/* XPM */
static char * frameAT_xpm[] = {
"3 26 3 1",
" 	c None",
".	c #D3E2ED",
"+	c #D6D2D0",
"   ",
"   ",
"   ",
"...",
"+++",
"+++",
"+++",
"+++",
"+++",
"+++",
"+++",
"+++",
"+++",
"+++",
"+++",
"+++",
"+++",
"+++",
"+++",
"+++",
"+++",
"+++",
"+++",
"+++",
"+++",
"+++"};
