/* XPM */
static char * frameATR_xpm[] = {
"3 26 6 1",
" 	c None",
".	c #D3E2ED",
"+	c #D6D2D0",
"@	c #E8EFF4",
"#	c #D4E3EC",
"$	c #FAFBFC",
"   ",
"   ",
"   ",
".  ",
"+@ ",
"++#",
"++$",
"++$",
"++$",
"++$",
"++$",
"++$",
"++$",
"++$",
"++$",
"++$",
"++$",
"++$",
"++$",
"++$",
"++$",
"++$",
"++$",
"++$",
"++$",
"++$"};
