/* XPM */
static char * maximizeA_xpm[] = {
"21 46 127 2",
"  	c #F4F2F2",
". 	c #D9D5D4",
"+ 	c #D6D2D0",
"@ 	c #D5D1CF",
"# 	c #D4D0CE",
"$ 	c #CECAC8",
"% 	c #C9C6C4",
"& 	c #D1CFCE",
"* 	c #DAD8D8",
"= 	c #D1CDCB",
"- 	c #C4C1C0",
"; 	c #E7E6E4",
"> 	c #FCFBFA",
", 	c #FDFCFB",
"' 	c #FAFAFA",
") 	c #E6E4E3",
"! 	c #C3C0BF",
"~ 	c #D0CCCA",
"{ 	c #C0BEBD",
"] 	c #F3F2F1",
"^ 	c #F7F7F6",
"/ 	c #F5F5F4",
"( 	c #F5F4F3",
"_ 	c #F2F1F1",
": 	c #BFBCBB",
"< 	c #D3CFCD",
"[ 	c #BAB7B4",
"} 	c #ECE9E9",
"| 	c #EFEEED",
"1 	c #EAEAE9",
"2 	c #B9B6B3",
"3 	c #C6C3C1",
"4 	c #CCCAC8",
"5 	c #EFEEEE",
"6 	c #EAE8E7",
"7 	c #D8D5D4",
"8 	c #C8C6C5",
"9 	c #B4B1AE",
"0 	c #E3E2E0",
"a 	c #E7E5E2",
"b 	c #E4E2E0",
"c 	c #A6A4A2",
"d 	c #23201F",
"e 	c #979593",
"f 	c #E7E4E3",
"g 	c #E1E0DE",
"h 	c #A7A3A1",
"i 	c #E9E8E6",
"j 	c #DFDCDA",
"k 	c #A3A09F",
"l 	c #2B2827",
"m 	c #9A9897",
"n 	c #2D2928",
"o 	c #979492",
"p 	c #E0DDDB",
"q 	c #E9E7E6",
"r 	c #CCC9C7",
"s 	c #A6A3A1",
"t 	c #E3E1DE",
"u 	c #D9D7D4",
"v 	c #A09E9A",
"w 	c #2A2726",
"x 	c #BBBAB9",
"y 	c #F9F8F8",
"z 	c #C7C6C6",
"A 	c #94928F",
"B 	c #E3E1DF",
"C 	c #A5A2A0",
"D 	c #9F9B99",
"E 	c #DEDBD9",
"F 	c #D5D2CF",
"G 	c #D4D1CE",
"H 	c #858180",
"I 	c #EFEEEC",
"J 	c #ECEAE9",
"K 	c #C7C5C5",
"L 	c #7C7A78",
"M 	c #D6D3CF",
"N 	c #DCDAD8",
"O 	c #A7A4A1",
"P 	c #C5C3BF",
"Q 	c #D2D0CB",
"R 	c #CECBC7",
"S 	c #EEEDEB",
"T 	c #ECEBEA",
"U 	c #F1F0EF",
"V 	c #D4D0CD",
"W 	c #C4C1BF",
"X 	c #D3D0CE",
"Y 	c #B6B2B1",
"Z 	c #989392",
"` 	c #D6D3D0",
" .	c #C9C5C1",
"..	c #CBC7C3",
"+.	c #959190",
"@.	c #C7C3C1",
"#.	c #9C9997",
"$.	c #A2A09E",
"%.	c #D0CECB",
"&.	c #C3BFBB",
"*.	c #D1CECB",
"=.	c #A29F9D",
"-.	c #8F8C8A",
";.	c #9E9A98",
">.	c #CAC7C4",
",.	c #C5C0BE",
"'.	c #C1BBB8",
").	c #BEB9B5",
"!.	c #C0BBB8",
"~.	c #C6C1BE",
"{.	c #9B9895",
"].	c #B6B3B2",
"^.	c #94908E",
"/.	c #868280",
"(.	c #A8A5A3",
"_.	c #C0BDBB",
":.	c #B9B5B4",
"<.	c #A8A4A2",
"[.	c #848280",
"}.	c #D2CECC",
"|.	c #C1BEBC",
"1.	c #A9A6A4",
"2.	c #888482",
"3.	c #888684",
"4.	c #D0CDCB",
"5.	c #BEBBB9",
"6.	c #BAB7B5",
"                                          ",
". . . . . . . . . . . . . . . . . . . . . ",
"+ + + + + + + + + @ # @ + + + + + + + + + ",
"+ + + + + + # $ % & * & % $ # + + + + + + ",
"+ + + + + = - ; > , ' , > ) ! = + + + + + ",
"+ + + + ~ { ] ^ / ( ( ( / ^ _ : ~ + + + + ",
"+ + + < [ } _ | | | | | | | ] 1 2 < + + + ",
"+ + + 3 4 5 6 6 6 6 7 6 6 6 6 5 8 3 + + + ",
"+ + # 9 0 a b b b c d e b b b f g 9 # + + ",
"+ + = h i j j j k l m n o j j p q h = + + ",
"+ + r s t u u v w x y z l A u u B C r + + ",
"+ + r D E F G H x I G J K L G M N D r + + ",
"+ + = O P Q R S T R R R i U R V W O = + + ",
"+ + X Y Z `  ... . . . . ... .` +.Y X + + ",
"+ + + @.#.$.%.&.&.&.&.&.&.&.*.=.#.@.+ + + ",
"+ + + # [ -.;.>.,.'.).!.~.>.{.-.[ # + + + ",
"+ + + + = ].^./.(._.:._.<.[.^.].= + + + + ",
"+ + + + + }.|.1.^.2.3.2.^.1.|.}.+ + + + + ",
"+ + + + + + @ 4.3 5.6.5.3 4.@ + + + + + + ",
"+ + + + + + + + + + + + + + + + + + + + + ",
"+ + + + + + + + + + + + + + + + + + + + + ",
"+ + + + + + + + + + + + + + + + + + + + + ",
"+ + + + + + + + + + + + + + + + + + + + + ",
"                                          ",
". . . . . . . . . . . . . . . . . . . . . ",
"+ + + + + + + + + @ # @ + + + + + + + + + ",
"+ + + + + + # $ % & * & % $ # + + + + + + ",
"+ + + + + = - ; > , ' , > ) ! = + + + + + ",
"+ + + + ~ { ] ^ / ( ( ( / ^ _ : ~ + + + + ",
"+ + + < [ } _ | | | | | | | ] 1 2 < + + + ",
"+ + + 3 4 5 6 6 6 6 7 6 6 6 6 5 8 3 + + + ",
"+ + # 9 0 a b b b c d e b b b f g 9 # + + ",
"+ + = h i j j j k l m n o j j p q h = + + ",
"+ + r s t u u v w x y z l A u u B C r + + ",
"+ + r D E F G H x I G J K L G M N D r + + ",
"+ + = O P Q R S T R R R i U R V W O = + + ",
"+ + X Y Z `  ... . . . . ... .` +.Y X + + ",
"+ + + @.#.$.%.&.&.&.&.&.&.&.*.=.#.@.+ + + ",
"+ + + # [ -.;.>.,.'.).!.~.>.{.-.[ # + + + ",
"+ + + + = ].^./.(._.:._.<.[.^.].= + + + + ",
"+ + + + + }.|.1.^.2.3.2.^.1.|.}.+ + + + + ",
"+ + + + + + @ 4.3 5.6.5.3 4.@ + + + + + + ",
"+ + + + + + + + + + + + + + + + + + + + + ",
"+ + + + + + + + + + + + + + + + + + + + + ",
"+ + + + + + + + + + + + + + + + + + + + + ",
"+ + + + + + + + + + + + + + + + + + + + + "};
