/* XPM */
static char * rollupA_xpm[] = {
"21 46 107 2",
"  	c #F4F2F2",
". 	c #D9D5D4",
"+ 	c #D6D2D0",
"@ 	c #D5D1CF",
"# 	c #D4D0CE",
"$ 	c #CECAC8",
"% 	c #C9C6C4",
"& 	c #D1CFCE",
"* 	c #DAD8D8",
"= 	c #D1CDCB",
"- 	c #C4C1C0",
"; 	c #E7E6E4",
"> 	c #FCFBFA",
", 	c #FDFCFB",
"' 	c #FAFAFA",
") 	c #E6E4E3",
"! 	c #C3C0BF",
"~ 	c #D0CCCA",
"{ 	c #C0BEBD",
"] 	c #F3F2F1",
"^ 	c #F7F7F6",
"/ 	c #F5F5F4",
"( 	c #F5F4F3",
"_ 	c #F2F1F1",
": 	c #BFBCBB",
"< 	c #D3CFCD",
"[ 	c #BAB7B4",
"} 	c #ECE9E9",
"| 	c #EFEEED",
"1 	c #EAEAE9",
"2 	c #B9B6B3",
"3 	c #C6C3C1",
"4 	c #CCCAC8",
"5 	c #EFEEEE",
"6 	c #EAE8E7",
"7 	c #C8C6C5",
"8 	c #B4B1AE",
"9 	c #E3E2E0",
"0 	c #E7E5E2",
"a 	c #E4E2E0",
"b 	c #E7E4E3",
"c 	c #E1E0DE",
"d 	c #A7A3A1",
"e 	c #E9E8E6",
"f 	c #DFDCDA",
"g 	c #B9B6B4",
"h 	c #DEDBD9",
"i 	c #E0DDDB",
"j 	c #E9E7E6",
"k 	c #CCC9C7",
"l 	c #A6A3A1",
"m 	c #E3E1DE",
"n 	c #D9D7D4",
"o 	c #565452",
"p 	c #D1D0CD",
"q 	c #E3E1DF",
"r 	c #A5A2A0",
"s 	c #9F9B99",
"t 	c #D5D2CF",
"u 	c #D4D1CE",
"v 	c #D6D3D0",
"w 	c #D6D3CF",
"x 	c #DCDAD8",
"y 	c #A7A4A1",
"z 	c #C5C3BF",
"A 	c #D2D0CB",
"B 	c #CECBC7",
"C 	c #D3D0CC",
"D 	c #D4D0CD",
"E 	c #C4C1BF",
"F 	c #D3D0CE",
"G 	c #B6B2B1",
"H 	c #989392",
"I 	c #C9C5C1",
"J 	c #959190",
"K 	c #C7C3C1",
"L 	c #9C9997",
"M 	c #A2A09E",
"N 	c #D0CECB",
"O 	c #C3BFBB",
"P 	c #D1CECB",
"Q 	c #A29F9D",
"R 	c #8F8C8A",
"S 	c #9E9A98",
"T 	c #CAC7C4",
"U 	c #C5C0BE",
"V 	c #C1BBB8",
"W 	c #BEB9B5",
"X 	c #C0BBB8",
"Y 	c #C6C1BE",
"Z 	c #9B9895",
"` 	c #B6B3B2",
" .	c #94908E",
"..	c #868280",
"+.	c #A8A5A3",
"@.	c #C0BDBB",
"#.	c #B9B5B4",
"$.	c #A8A4A2",
"%.	c #848280",
"&.	c #D2CECC",
"*.	c #C1BEBC",
"=.	c #A9A6A4",
"-.	c #888482",
";.	c #888684",
">.	c #D0CDCB",
",.	c #BEBBB9",
"'.	c #BAB7B5",
"                                          ",
". . . . . . . . . . . . . . . . . . . . . ",
"+ + + + + + + + + @ # @ + + + + + + + + + ",
"+ + + + + + # $ % & * & % $ # + + + + + + ",
"+ + + + + = - ; > , ' , > ) ! = + + + + + ",
"+ + + + ~ { ] ^ / ( ( ( / ^ _ : ~ + + + + ",
"+ + + < [ } _ | | | | | | | ] 1 2 < + + + ",
"+ + + 3 4 5 6 6 6 6 6 6 6 6 6 5 7 3 + + + ",
"+ + # 8 9 0 a a a a a a a a a b c 8 # + + ",
"+ + = d e f f f f f g h f f f i j d = + + ",
"+ + k l m n n n n n o p n n n n q r k + + ",
"+ + k s h t u u u u ^ v u u u w x s k + + ",
"+ + = y z A B B B B C B B B B D E y = + + ",
"+ + F G H v I I I I I I I I I v J G F + + ",
"+ + + K L M N O O O O O O O P Q L K + + + ",
"+ + + # [ R S T U V W X Y T Z R [ # + + + ",
"+ + + + = `  ...+.@.#.@.$.%. .` = + + + + ",
"+ + + + + &.*.=. .-.;.-. .=.*.&.+ + + + + ",
"+ + + + + + @ >.3 ,.'.,.3 >.@ + + + + + + ",
"+ + + + + + + + + + + + + + + + + + + + + ",
"+ + + + + + + + + + + + + + + + + + + + + ",
"+ + + + + + + + + + + + + + + + + + + + + ",
"+ + + + + + + + + + + + + + + + + + + + + ",
"                                          ",
". . . . . . . . . . . . . . . . . . . . . ",
"+ + + + + + + + + @ # @ + + + + + + + + + ",
"+ + + + + + # $ % & * & % $ # + + + + + + ",
"+ + + + + = - ; > , ' , > ) ! = + + + + + ",
"+ + + + ~ { ] ^ / ( ( ( / ^ _ : ~ + + + + ",
"+ + + < [ } _ | | | | | | | ] 1 2 < + + + ",
"+ + + 3 4 5 6 6 6 6 6 6 6 6 6 5 7 3 + + + ",
"+ + # 8 9 0 a a a a a a a a a b c 8 # + + ",
"+ + = d e f f f f f g h f f f i j d = + + ",
"+ + k l m n n n n n o p n n n n q r k + + ",
"+ + k s h t u u u u ^ v u u u w x s k + + ",
"+ + = y z A B B B B C B B B B D E y = + + ",
"+ + F G H v I I I I I I I I I v J G F + + ",
"+ + + K L M N O O O O O O O P Q L K + + + ",
"+ + + # [ R S T U V W X Y T Z R [ # + + + ",
"+ + + + = `  ...+.@.#.@.$.%. .` = + + + + ",
"+ + + + + &.*.=. .-.;.-. .=.*.&.+ + + + + ",
"+ + + + + + @ >.3 ,.'.,.3 >.@ + + + + + + ",
"+ + + + + + + + + + + + + + + + + + + + + ",
"+ + + + + + + + + + + + + + + + + + + + + ",
"+ + + + + + + + + + + + + + + + + + + + + ",
"+ + + + + + + + + + + + + + + + + + + + + "};
