/* XPM */
static char * titleAB_xpm[] = {
"1 21 3 1",
" 	c None",
".	c #F4F2F2",
"+	c #D9D5D4",
".",
"+",
"+",
"+",
"+",
"+",
"+",
"+",
"+",
"+",
"+",
"+",
"+",
"+",
"+",
"+",
"+",
"+",
"+",
"+",
"+"};
