/* XPM */
static char * a_xpm[] = {
"10 22 52 1",
" 	c None",
".	c #D9D9D9",
"+	c #DCDCDC",
"@	c #E1E1E1",
"#	c #D4D4D4",
"$	c #CFCFCF",
"%	c #C9C9C9",
"&	c #C4C4C4",
"*	c #AA9CA4",
"=	c #683653",
"-	c #4D0E33",
";	c #54173B",
">	c #89687C",
",	c #581E40",
"'	c #46012A",
")	c #BFBFBF",
"!	c #A99EA4",
"~	c #47052C",
"{	c #673753",
"]	c #6C3E59",
"^	c #48062E",
"/	c #BBBBBB",
"(	c #6F435D",
"_	c #907786",
":	c #A1929B",
"<	c #B8B8B8",
"[	c #5C2546",
"}	c #B2AEB0",
"|	c #501237",
"1	c #B3B3B3",
"2	c #6B3E59",
"3	c #8F7987",
"4	c #9F929A",
"5	c #AEAEAE",
"6	c #998C94",
"7	c #48042B",
"8	c #46032B",
"9	c #643450",
"0	c #683A55",
"a	c #4A082E",
"b	c #A9A9A9",
"c	c #93848D",
"d	c #5F2C4A",
"e	c #4B0A31",
"f	c #511639",
"g	c #7E6072",
"h	c #541A3C",
"i	c #A0A0A0",
"j	c #9D9D9D",
"k	c #989898",
"l	c #919191",
"m	c #8E8E8E",
"..........",
"++++++++++",
"@@@@@@@@@@",
"@@@@@@@@@@",
"++++++++++",
"..........",
"##########",
"$$$$$$$$$$",
"%%%%%%%%%%",
"&&*=-;>,'&",
")!~'{]^'')",
"/('_//:''/",
"<['}<<<|'<",
"12'3114''1",
"567890a''5",
"bbcdefgh'b",
"iiiiiiiiii",
"jjjjjjjjjj",
"kkkkkkkkkk",
"llllllllll",
"mmmmmmmmmm",
"mmmmmmmmmm"};
