/* XPM */
static char * n6_xpm[] = {
"10 22 68 1",
" 	c None",
".	c #D9D9D9",
"+	c #DCDCDC",
"@	c #E1E1E1",
"#	c #BAABB4",
"$	c #46032C",
"%	c #46012A",
"&	c #A48D9B",
"*	c #D4D4D4",
"=	c #CECBCD",
"-	c #5A2144",
";	c #734560",
">	c #D3D3D3",
",	c #CFCFCF",
"'	c #815971",
")	c #501137",
"!	c #C3BDC0",
"~	c #C9C9C9",
"{	c #A5949E",
"]	c #9E8896",
"^	c #C4C4C4",
"/	c #BEBDBD",
"(	c #54173B",
"_	c #4B0B32",
":	c #561B3D",
"<	c #896A7C",
"[	c #C3C2C2",
"}	c #BFBFBF",
"|	c #866679",
"1	c #4D0E33",
"2	c #8B6E7F",
"3	c #BBBBBB",
"4	c #5C2445",
"5	c #836476",
"6	c #BAB9B9",
"7	c #826074",
"8	c #5A2143",
"9	c #B8B8B8",
"0	c #4E0E34",
"a	c #B1ADAF",
"b	c #B0ADAF",
"c	c #4E0F35",
"d	c #B3B3B3",
"e	c #602D4B",
"f	c #7F6072",
"g	c #B2B1B1",
"h	c #B2B2B2",
"i	c #826576",
"j	c #62314F",
"k	c #AEAEAE",
"l	c #96878F",
"m	c #47032B",
"n	c #4D0F34",
"o	c #4E1135",
"p	c #46032B",
"q	c #978991",
"r	c #A9A9A9",
"s	c #94878F",
"t	c #62314E",
"u	c #4D0E34",
"v	c #4C0C32",
"w	c #612F4C",
"x	c #94868F",
"y	c #A0A0A0",
"z	c #9D9D9D",
"A	c #989898",
"B	c #919191",
"C	c #8E8E8E",
"..........",
"++++++++++",
"@@@@@@@@@@",
"@@@@@@@@@@",
"++++++++++",
"....#$%&..",
"***=-%;>**",
",,,'%)!,,,",
"~~{%%]~~~~",
"^/(%%_:<[^",
"}|%%11%%2}",
"34%5667%83",
"90%a99b%c9",
"de%fghi%jd",
"klm%no%pqk",
"rrstuvwxrr",
"yyyyyyyyyy",
"zzzzzzzzzz",
"AAAAAAAAAA",
"BBBBBBBBBB",
"CCCCCCCCCC",
"CCCCCCCCCC"};
