/* XPM */
static char * applications_16x16_xpm[] = {
"16 16 11 1",
" 	c None",
".	c #000000",
"+	c #FFFFC6",
"@	c #848200",
"#	c #C6C300",
"$	c #C6C3C6",
"%	c #0000FF",
"&	c #5A595A",
"*	c #FFFFFF",
"=	c #848284",
"-	c #A5A2A5",
"     ..   .     ",
"   ..++...+..   ",
" ..++.@@#@+++.. ",
".++.@@@@###@+++.",
"..@.........#...",
" .+.$%%%$&$.+.  ",
" .+.$*****$...  ",
" .+.$*****$.$.  ",
" .+.$*****$.$.. ",
" .+.$$$$$$$.$=. ",
" .+.........$-. ",
" .++++.$$$$$$-. ",
" .#+++..------. ",
"  ..#+++....... ",
"    ..#+..      ",
"      ..        "};
