/* XPM */
static char * close_16x16_xpm[] = {
"16 16 5 1",
" 	c None",
".	c #000000",
"+	c #808080",
"@	c #FFFFFF",
"#	c #C0C0C0",
"                ",
"                ",
"          .     ",
"  ..+    .@.+   ",
"   ..+  .@@@.+  ",
"    .@..@@#..++ ",
"     .@@##.++++ ",
"      .@#.+++   ",
"     .@##.++    ",
"    .@.+.@.+    ",
"   .@.++ .@.+   ",
"  .@.++   ..+   ",
"  ..++     ..+  ",
"  .++       .+  ",
"  ++        ++  ",
"                "};
