/* XPM */
static char * colors_16x16_xpm[] = {
"16 16 9 1",
" 	c None",
".	c #000000",
"+	c #0000F8",
"@	c #C000C0",
"#	c #00C0C0",
"$	c #00C000",
"%	c #F8A858",
"&	c #F80000",
"*	c #F8DCA8",
"      ...       ",
"      .++..     ",
"      ...++...  ",
"    ...@@..+++..",
"    .##..@@..++.",
"    ...##...@@+.",
"  ...$$..###..+.",
"  .%%..$$..##.+.",
"  ...%%...$$#.+.",
"  .&&..%%%.$#.+.",
" ..&&&&..%.$#...",
".**...&&.%.$#.  ",
".****.&&.%.$#.  ",
".***.&&&.%...   ",
".**. ..&.%.     ",
" ..    ...      "};
