/* XPM */
static char * email_client_16x16_xpm[] = {
"16 16 9 1",
" 	c None",
".	c #000000",
"+	c #F8A858",
"@	c #F8FCF8",
"#	c #F8DCA8",
"$	c #C0C0C0",
"%	c #585858",
"&	c #800000",
"*	c #F88000",
"       .....    ",
"    .. .+@##.   ",
"   .$@..++@##.  ",
"   .$@@@..+@##. ",
"  .@%@@@$.++@@@.",
"  .@%@$$@.&+#++.",
" .@@%$@@.+*&#++.",
" .@@%@@@.++*&&. ",
".$%%%@@.++++###.",
".@@$@@@.++&+#++.",
" .@$@@..++*&#++.",
" .@$@@. .++*&&. ",
"  .$@.   .++###.",
"  .$@.    .+#++.",
"   ..      .#++.",
"            ... "};
