/* XPM */
static char * file_html_32x32_xpm[] = {
"32 32 90 1",
" 	c None",
".	c #010100",
"+	c #FBDFA5",
"@	c #896E5F",
"#	c #BBA080",
"$	c #403F41",
"%	c #0F1B21",
"&	c #8FA7BA",
"*	c #717371",
"=	c #547244",
"-	c #456990",
";	c #354321",
">	c #0D130E",
",	c #252E13",
"'	c #F9D183",
")	c #FDAC5C",
"!	c #E0C66E",
"~	c #CDAF6C",
"{	c #3D74DA",
"]	c #3D568B",
"^	c #575855",
"/	c #2A3B47",
"(	c #4E6038",
"_	c #CFBA88",
":	c #808182",
"<	c #969696",
"[	c #5096D0",
"}	c #95BA7A",
"|	c #1D5098",
"1	c #193E7C",
"2	c #FBF896",
"3	c #FCF9B7",
"4	c #6080A3",
"5	c #D6D3B9",
"6	c #8CB3D1",
"7	c #4670A0",
"8	c #2F61A2",
"9	c #0F2B5E",
"0	c #DCDCDC",
"a	c #FDFAD9",
"b	c #91B759",
"c	c #336BB3",
"d	c #162C36",
"e	c #D1BF94",
"f	c #3880C3",
"g	c #AFD2AB",
"h	c #BF9861",
"i	c #87A83F",
"j	c #61A9DB",
"k	c #D4D4D4",
"l	c #F0F0EF",
"m	c #D5CAA2",
"n	c #A87D4B",
"o	c #314458",
"p	c #372614",
"q	c #343434",
"r	c #687814",
"s	c #A8C0ED",
"t	c #9FBE56",
"u	c #5D96F5",
"v	c #7BBDE5",
"w	c #618FB9",
"x	c #4682B4",
"y	c #242729",
"z	c #825943",
"A	c #BFB91B",
"B	c #798A16",
"C	c #9AC6D1",
"D	c #AAAAAA",
"E	c #759137",
"F	c #B3C892",
"G	c #193139",
"H	c #69842F",
"I	c #83AF6C",
"J	c #CC9246",
"K	c #4D5E79",
"L	c #A6896F",
"M	c #1F3B3A",
"N	c #536D40",
"O	c #1C2010",
"P	c #6F8F5A",
"Q	c #40572F",
"R	c #644742",
"S	c #626262",
"T	c #2C4930",
"U	c #48542B",
"V	c #615111",
"W	c #11222F",
"X	c #8CB042",
"Y	c #141A0F",
"            ..                  ",
"            .+..                ",
"           .@##$%..             ",
"         ..&*=-*;>,....         ",
"       ..')!!~&{]^/(~_#....     ",
"      .:!!'!<[[}{]|1/#23+~#...  ",
"     .4'++5_!6[}}7819/#+++'+_#..",
"     .60aaa'!!}~b-c|1d$e5+++3+!.",
"    .fgaaa0''!~hi7c81/%b__'_''i.",
"    .jkllla5m~~n7c7c1opqh~_!~!r.",
"   .cj5all'!'!n-{fcc11q,i~~!!~. ",
"   .[jslaa!__h4[[fcc1o;,@ht_~~. ",
"   .[uvka!&w#xu[[{cc|opyznhh~A. ",
"   .[[j[a#[vj[u[f{cc1ooyzBiihi. ",
"   .[[jjC'D}uj[[{7c|1//9zEnnnr. ",
"   .{jjjjwFb{uc7{cc81/yGzHEni.  ",
"    9x[[jju[I*JbK8|1//9$BEnnh.  ",
"    dc[[[jjxLhhhz^1oMG9(BEinn.  ",
"   .b1c[x[[fJLn@Nz///O$zEPnir.  ",
"   .3<98fc7cnLP@QRqG9G(EEnhA.   ",
"  ._33P1]888SP^RTQyGyUBnnh~t..  ",
" ._3323I19119$TT$pGGVnnnt~'r....",
".E'3333+FS19//$qW%REnXh~!2!.....",
" ..A'32333'@q;pqzBnhh~'++3~.... ",
"   ..~'333332++''''+2+3332i...  ",
"     ..A!'333333332333322!r...  ",
"       ...A!+223322222222i...   ",
"          ...A!'33222222!r..    ",
"             ...A!'22222i..     ",
"                ...A!'2!r.      ",
"                   YY.ir.       ",
"                      ..        "};
