/* XPM */
static char * file_text_32x32_xpm[] = {
"32 32 221 2",
"  	c None",
". 	c #000000",
"+ 	c #482000",
"@ 	c #D0C898",
"# 	c #F8E0D0",
"$ 	c #E8C4A8",
"% 	c #703400",
"& 	c #F8F8C8",
"* 	c #E0DC98",
"= 	c #D0CC88",
"- 	c #F8E4D8",
"; 	c #E0A490",
"> 	c #A85018",
", 	c #706020",
"' 	c #F8FCD8",
") 	c #F8FCE0",
"! 	c #B8A070",
"~ 	c #806820",
"{ 	c #E09058",
"] 	c #F07820",
"^ 	c #D86C00",
"/ 	c #F8F4C8",
"( 	c #F8F8D8",
"_ 	c #F0ECC8",
": 	c #F8F0C8",
"< 	c #C08838",
"[ 	c #F8B478",
"} 	c #F07800",
"| 	c #B85800",
"1 	c #F8FCF0",
"2 	c #F8E8C0",
"3 	c #F0D078",
"4 	c #E8CC80",
"5 	c #F0DC98",
"6 	c #F0E8C8",
"7 	c #F8FCC8",
"8 	c #F0F0B8",
"9 	c #F8DCA8",
"0 	c #F89440",
"a 	c #C0BC98",
"b 	c #F8F4E0",
"c 	c #F0F0C8",
"d 	c #E0C880",
"e 	c #F0E4A8",
"f 	c #F8F0C0",
"g 	c #F8F8B8",
"h 	c #F8FCB8",
"i 	c #F8F8A8",
"j 	c #903800",
"k 	c #885418",
"l 	c #F0D478",
"m 	c #F8F0D0",
"n 	c #F0DCA0",
"o 	c #F0D488",
"p 	c #F0E4A0",
"q 	c #F8F4B0",
"r 	c #F8FCA8",
"s 	c #F0E8B0",
"t 	c #A8AC38",
"u 	c #D8C488",
"v 	c #E8C868",
"w 	c #F0D890",
"x 	c #F8ECC8",
"y 	c #F8ECC0",
"z 	c #E8C870",
"A 	c #F0C860",
"B 	c #F0E498",
"C 	c #F8FC98",
"D 	c #A09C38",
"E 	c #A04400",
"F 	c #F0ECB0",
"G 	c #F0E098",
"H 	c #F8ECB0",
"I 	c #F0E478",
"J 	c #E8C858",
"K 	c #707420",
"L 	c #D0CCA0",
"M 	c #F0ECC0",
"N 	c #E8BC50",
"O 	c #E8C468",
"P 	c #F0E088",
"Q 	c #F0F0A0",
"R 	c #B8B488",
"S 	c #D0B050",
"T 	c #D0AC48",
"U 	c #D0BC60",
"V 	c #E8DCA8",
"W 	c #E0DC70",
"X 	c #E8DCA0",
"Y 	c #E8E4D0",
"Z 	c #D0C4B8",
"` 	c #E8E4B8",
" .	c #E0C888",
"..	c #D0B460",
"+.	c #C8A850",
"@.	c #E0BC50",
"#.	c #F8F498",
"$.	c #D8D058",
"%.	c #B0A468",
"&.	c #E8E4A8",
"*.	c #D8B868",
"=.	c #C0A040",
"-.	c #D0C080",
";.	c #D0B868",
">.	c #C0AC58",
",.	c #B89C48",
"'.	c #C8AC60",
").	c #D8C480",
"!.	c #E8E098",
"~.	c #E0D488",
"{.	c #D8C058",
"].	c #D8C460",
"^.	c #F8F890",
"/.	c #C8B880",
"(.	c #E0D498",
"_.	c #B0A458",
":.	c #A84C00",
"<.	c #F0ECD8",
"[.	c #D0BC80",
"}.	c #C09828",
"|.	c #C8A430",
"1.	c #E8E488",
"2.	c #C0A450",
"3.	c #F0F4C8",
"4.	c #E8E0A0",
"5.	c #D0CC48",
"6.	c #D0D498",
"7.	c #D0C070",
"8.	c #B09438",
"9.	c #A88830",
"0.	c #C8B870",
"a.	c #B8AC78",
"b.	c #E8E8B8",
"c.	c #C8BC68",
"d.	c #C8A848",
"e.	c #E0C058",
"f.	c #F8F098",
"g.	c #989428",
"h.	c #E0CC78",
"i.	c #E8E0B0",
"j.	c #C8B858",
"k.	c #D8D4C0",
"l.	c #E0D490",
"m.	c #C0B050",
"n.	c #B8A040",
"o.	c #C8A028",
"p.	c #F0ECA0",
"q.	c #D8D868",
"r.	c #686C10",
"s.	c #D0B450",
"t.	c #D8C888",
"u.	c #F8FCC0",
"v.	c #E8DC88",
"w.	c #E0D080",
"x.	c #B0A830",
"y.	c #D0B888",
"z.	c #D8CC70",
"A.	c #E0D898",
"B.	c #F8F8C0",
"C.	c #C09C30",
"D.	c #F0E8C0",
"E.	c #783410",
"F.	c #C8C880",
"G.	c #F8F8A0",
"H.	c #A8A028",
"I.	c #C8BC88",
"J.	c #E0E490",
"K.	c #B09840",
"L.	c #B8AC50",
"M.	c #F8D0B0",
"N.	c #B04800",
"O.	c #E0D478",
"P.	c #888020",
"Q.	c #807C28",
"R.	c #E8E478",
"S.	c #E8DC90",
"T.	c #987C28",
"U.	c #F8BC80",
"V.	c #C04C08",
"W.	c #985038",
"X.	c #D0C068",
"Y.	c #C0A848",
"Z.	c #B0B040",
"`.	c #F0E878",
" +	c #D8D078",
".+	c #E0E090",
"++	c #D89860",
"@+	c #F8D8C8",
"#+	c #D09078",
"$+	c #A86050",
"%+	c #C0A048",
"&+	c #C0B448",
"*+	c #E0AC98",
"=+	c #C87858",
"-+	c #D0B870",
";+	c #908038",
">+	c #B09C40",
",+	c #E8E880",
"'+	c #E0D078",
")+	c #F0E890",
"!+	c #F8F490",
"~+	c #E8DC80",
"{+	c #D0C860",
"]+	c #B08878",
"^+	c #403028",
"/+	c #686028",
"(+	c #786830",
"_+	c #B8B458",
":+	c #E0E068",
"<+	c #686810",
"[+	c #D8D460",
"}+	c #F8FC90",
"|+	c #808460",
"1+	c #F0EC88",
"2+	c #A0A030",
"3+	c #F0E480",
"4+	c #F8F888",
"5+	c #E0D460",
"6+	c #F0F080",
"7+	c #181800",
"8+	c #101400",
"                        . .                                     ",
"              . . +     . @ . .                                 ",
"            . # $ %     . & * = . . .                           ",
"          . $ - ; > .   , ' ' ) * = ! . . . .                   ",
"            ~ { ] ^ % , / ( _ : ' ' ) ' * = ! . . . .           ",
"            . < [ } | . 1 2 3 4 5 6 ( ' 7 ' 7 8 * = ! . . .     ",
"              ~ 9 0 ^ % a b b c 4 4 d e f g & 7 h h i * = ! . . ",
"              . < [ } j k l e m 1 & e n o l e p q h h r r s t . ",
"                ~ 9 0 ^ % u v v w x ( ( / y s n z A 3 B r C D . ",
"                . < [ } E k 1 b 4 4 F s G H f & 7 i I J r C K . ",
"                  ~ 9 0 ^ % L M 1 1 ' f G N A O P h r r r Q .   ",
"                . R < [ } E k S T U V 6 ' ( ' g & h 7 r i W .   ",
"              . X Y ~ 9 0 ^ % Z `  ...+.@.7 e s h h h r #.$..   ",
"              . ( m %.< [ } j k &.6 c _ 6 & *.=.=.U B r q D .   ",
"            . & / -.;.~ 9 0 ^ % >.,.'.).!.g h q ~.{.].Q ^.K .   ",
"          . /.) ) h (._.< [ } :.k <.(.[.}.}.|.q h r i i 1..     ",
"          . 7 F 2.(.h Y ~ 9 0 ^ % '.( 3./ 3.4.h h h r g 5..     ",
"        . 6.7 3.7.8.9.0.a.< [ } j k b.c.d.e.G r h h r f.g..     ",
"      . /.7 s h.i.h h >.j.~ 9 0 ^ % k.F l.m.n.8.o.p.C q.r..     ",
"      . h i F s.8.2.t.h h -.< [ } E k u.g h q v.w.Q p.x..       ",
"    . y.i z.A.B.h A.C.8.7.D.~ 9 0 ^ E.F.s.w.i r C G.z.H.. .     ",
"  . I.q h J.K.8.A.&.h h B p.L.< M.} N.k ~.O.i h B.O.j.P.. . . . ",
". Q.R.r r r i S.2.8.2.A.h h F T.U.] V.W.t.r r Q X.L.Y.. . . . . ",
"  . . Z.`.#.h r r q  +8.8.>..+X.++@+#+$+7.|.%+L.K.m.x.. . . .   ",
"      . . &+R.G.r r r r B U 8.2.T.# *+=+-+L.;+>+c.,+g.. . .     ",
"          . . Z.'+)+i C r r !+~+{+T.]+^+/+(+_+Q ^.:+<+. . .     ",
"              . . . Z.[+1.Q r }+C Q X.|+m.^.}+}+1+2+. . .       ",
"                    . . . Z.[+3+C C C C }+}+}+4+$.K . .         ",
"                          . . . Z.5+:+!+4+4+4+6+2+. .           ",
"                                . . . Z.[+:+f.[+K .             ",
"                                      7+8+. D K .               ",
"                                            . .                 "};
