/* XPM */
static char * folder_16x16_xpm[] = {
"15 16 153 2",
"  	c None",
". 	c #010000",
"+ 	c #555354",
"@ 	c #060200",
"# 	c #676566",
"$ 	c #BFBDBE",
"% 	c #E2DFDA",
"& 	c #070100",
"* 	c #110A00",
"= 	c #121011",
"- 	c #F6F4F5",
"; 	c #4C4A4B",
"> 	c #65625D",
", 	c #C4BDAB",
"' 	c #E3DBC4",
") 	c #0D0500",
"! 	c #080000",
"~ 	c #120A00",
"{ 	c #190F03",
"] 	c #FFFEFF",
"^ 	c #C1BEB9",
"/ 	c #5C5545",
"( 	c #68604B",
"_ 	c #BDB29E",
": 	c #EDE2CE",
"< 	c #ECE1CD",
"[ 	c #F3E8D6",
"} 	c #B7AB9B",
"| 	c #1C1004",
"1 	c #FCFAFB",
"2 	c #FFFEFB",
"3 	c #C7C1B5",
"4 	c #D6CDBC",
"5 	c #605746",
"6 	c #C4B8A8",
"7 	c #EBDECD",
"8 	c #EFE2D1",
"9 	c #F5E8D8",
"0 	c #5E5141",
"a 	c #CBC9CA",
"b 	c #FEFCFD",
"c 	c #CBC7C6",
"d 	c #CAC2BF",
"e 	c #CAC1BA",
"f 	c #D2C8BF",
"g 	c #5B4E45",
"h 	c #5F5146",
"i 	c #645447",
"j 	c #6D5D4E",
"k 	c #C4B4A4",
"l 	c #0D0000",
"m 	c #C3C1C2",
"n 	c #B9B7B8",
"o 	c #C9C3C5",
"p 	c #C0B7B8",
"q 	c #D1C7C5",
"r 	c #CEC3BF",
"s 	c #CFC0B9",
"t 	c #B1A096",
"u 	c #C4B2A4",
"v 	c #130200",
"w 	c #C9B8A8",
"x 	c #5E5140",
"y 	c #090708",
"z 	c #D0CECF",
"A 	c #B6B4B5",
"B 	c #CDCBCE",
"C 	c #C5C2C9",
"D 	c #BFBAC1",
"E 	c #C4BEC2",
"F 	c #C8BEBD",
"G 	c #A59794",
"H 	c #CAB9B1",
"I 	c #B8A69A",
"J 	c #140300",
"K 	c #D2C1B1",
"L 	c #5F4F3F",
"M 	c #BEBCBD",
"N 	c #D6D4D5",
"O 	c #B9B8BD",
"P 	c #BDBDC7",
"Q 	c #CCCAD5",
"R 	c #BEBBC2",
"S 	c #B7AEB1",
"T 	c #D1C6C4",
"U 	c #B2A39C",
"V 	c #AB998D",
"W 	c #0F0000",
"X 	c #C1B0A0",
"Y 	c #6D5D4D",
"Z 	c #0D0B0C",
"` 	c #C2C0C1",
" .	c #C3C2C7",
"..	c #C3C7D0",
"+.	c #C2C6CF",
"@.	c #99989E",
"#.	c #BFBBBC",
"$.	c #A69C9A",
"%.	c #B7A8A1",
"&.	c #B09E92",
"*.	c #110000",
"=.	c #D1BEAF",
"-.	c #5C4B3B",
";.	c #030102",
">.	c #050304",
",.	c #868485",
"'.	c #C3C4C8",
").	c #B1B8C0",
"!.	c #A8B1B8",
"~.	c #BCBFC4",
"{.	c #A9A7A8",
"].	c #A29B95",
"^.	c #9D9088",
"/.	c #BEAB9D",
"(.	c #705E50",
"_.	c #000103",
":.	c #848D92",
"<.	c #AAB5B9",
"[.	c #9DA2A5",
"}.	c #B0B0AE",
"|.	c #A7A29C",
"1.	c #A3998F",
"2.	c #BEAEA1",
"3.	c #0E0000",
"4.	c #D1BEB0",
"5.	c #604E44",
"6.	c #000009",
"7.	c #050C12",
"8.	c #959FA0",
"9.	c #9BA29B",
"0.	c #A1A195",
"a.	c #B2AB9B",
"b.	c #9E9282",
"c.	c #130100",
"d.	c #C7AFA5",
"e.	c #725B55",
"f.	c #000305",
"g.	c #09160D",
"h.	c #99A08E",
"i.	c #A3A38B",
"j.	c #B2AC94",
"k.	c #D3B2AB",
"l.	c #1D0000",
"m.	c #000500",
"n.	c #000400",
"o.	c #A19D91",
"p.	c #0B0000",
"q.	c #CCB0AC",
"r.	c #150000",
"s.	c #140000",
"t.	c #04000B",
"u.	c #0F0213",
"v.	c #0C0704",
"  . + @                       ",
". # $ % & *                   ",
"= - ; > , ' ) ! ~ ! {         ",
". ] ] ^ / ( _ : < [ } |       ",
". 1 $ 2 3 4 5 6 7 8 9 0       ",
". a b c d e f g h i j k l     ",
". b m n o p q r s t u v w x   ",
"y z A B C D E F G H I J K L   ",
". M N O P Q R S T U V W X Y   ",
"Z n `  ...+.@.#.$.%.&.*.=.-.  ",
";.>.,.'.).!.~.{.].^.I W /.(.  ",
"    . _.:.<.[.}.|.1.2.3.4.5.  ",
"        6.7.8.9.0.a.b.c.d.e.  ",
"            f.g.h.i.j.3.k.l.l ",
"                m.n.o.p.q.r.s.",
"                    t.u.v.!   "};
