/* XPM */
static char * help3_32x32_xpm[] = {
"32 32 5 1",
" 	c None",
".	c #000080",
"+	c #585858",
"@	c #000000",
"#	c #F8FCF8",
"                                ",
"                                ",
"                                ",
"                                ",
"                                ",
"                                ",
"                                ",
"                 .....+         ",
"                ..  +..+        ",
"               ..+   ...        ",
"               ..+   ...        ",
"               +..  +..+        ",
"       @@           ..+         ",
"      @+#@    @@@  ..+          ",
"      @+##@ @@##@+..+           ",
"      @+###@+###@+..+           ",
"      @+###@####@+@             ",
"      @+###@+###@+...           ",
"      @+###@####@+...           ",
"      @+###@+###@+@             ",
"      @+###@####@+@             ",
"       @+##@+##@@+@             ",
"        @+#@#@@##+@             ",
"         @+@@+++++@             ",
"         @@+@@@@@@@             ",
"          @@                    ",
"                                ",
"                                ",
"                                ",
"                                ",
"                                ",
"                                "};
