/* XPM */
static char * kcalc_32x32_xpm[] = {
"32 32 17 1",
" 	c None",
".	c #000000",
"+	c #FFFFFF",
"@	c #C0C0FF",
"#	c #C0C0C0",
"$	c #808080",
"%	c #00C0C0",
"&	c #C05800",
"*	c #FFFFC0",
"=	c #008080",
"-	c #004040",
";	c #FFDCA8",
">	c #00FF00",
",	c #585858",
"'	c #FFC0C0",
")	c #FF0000",
"!	c #800000",
"       ....................     ",
"       .+++@+++@+++@+++@++..    ",
"       .+++@+++@+++@+++@++.+.   ",
"       .@@@@@@@@@@@@@@@@@@.+@.  ",
" ................+#$...@++.@++. ",
".%%%%%%%%%%%%%%%%..&**.$++......",
".%==============-..&;;*.+++$$$$.",
".%=------------=-.$.&;*.$@@@##@.",
".%=-.>.>>.>...%=-.$.&;;*.++@+++.",
".%=-.>.>...>..%=-.$$.&;*.$+@+++.",
".%=-.>..>.>>..%=-.$$.&;;*.+@+++.",
".%=%%%%%%%%%%%%=-.=@$.&;*.$@@@@.",
".%==============-.$#$.&;;*.@+++.",
".%=############=-.$##$.&;*.$+++.",
".%=#,,.#,,.#,,.=-.$##$.&;;*.+++.",
".%=#,,.#,,.#,,.=-.=@@@$.&;*.$@@.",
".%=............=-.$#+#$.&;;*.++.",
".%=############=-.$#++#$.&;*.$+.",
".%=#,,.#,,.#,,.=-.$#++#$.&;;*.+.",
".%=#,,.#,,.#,,.=-.=@@@@@$.&;*.#.",
".%=............=-.$#+++@$.&;;*..",
".%=########''''=-.$#+++@#$.&*+..",
".%=#,,.#,,.')).=-.$#+++@#$.&;+!.",
".%=#,,.#,,.')).=-.=@@@@@@@$..!!.",
".%=............=-.$#+++@+##$$...",
".-==============-.$#+++@++#@#$$.",
".----------------.$#+++@+++@###.",
" ................==@@@@@@@@@@@@.",
"       .$$$=$$$=$$#@+++@+++@+++.",
"       .###@###@###@+++@+++@+++.",
"       .+++@+++@+++@+++@+++@+++.",
"       ........................."};
