/* XPM */
static char * kcmclock_16x16_xpm[] = {
"16 16 10 1",
" 	c None",
".	c #FAFBFA",
"+	c #BBBBBB",
"@	c #000000",
"#	c #0000F2",
"$	c #6F0505",
"%	c #F90000",
"&	c #7B7B7C",
"*	c #747573",
"=	c #808000",
"                ",
"  .....+......@ ",
" @..#..+..##..+@",
" @..#..@@.##..+@",
" @..#..+...#..+@",
" @..#..+..#...+@",
" @..##.@@.##..+@",
" @.....+......+@",
" @.@@$%@$%@@@.+@",
" @..$%....%@..+@",
" @&*%@....$%&*+@",
" @&&%......%&&&@",
"  @@%..=...%@@@@",
"    $@....$@    ",
"     %@..$%     ",
"      $%%@      "};
