/* XPM */
static char * multimedia_16x16_xpm[] = {
"16 16 10 1",
" 	c None",
".	c #000000",
"+	c #FFFFC6",
"@	c #848200",
"#	c #C6C300",
"$	c #C6C3C6",
"%	c #C6FFFF",
"&	c #FFFFFF",
"*	c #A5A2A5",
"=	c #C6C3FF",
"     ..   .     ",
"   ..++...+..   ",
" ..++..@#..++.. ",
".++..@@@###..++.",
"...@@@@@####....",
" .+..@@@##..#.  ",
" .+++..@..###.  ",
" .+++++.##....  ",
" .++++++#.$$$.  ",
" .++++++.%$$$&. ",
" .+++++.$$*.*$$.",
" .+++++.$$.+.$$.",
" .#++++.$$*.=$$.",
"  ..#+++.&$$$=. ",
"    ..#+..$$$.  ",
"      ..  ...   "};
