/* XPM */
static char * netscape_32x32_xpm[] = {
"32 32 12 1",
" 	c None",
".	c #0053CC",
"+	c #941100",
"@	c #000000",
"#	c #929292",
"$	c #CE1C01",
"%	c #CBCBCB",
"&	c #FFEE00",
"*	c #B0B0B3",
"=	c #FFFFFF",
"-	c #FFE2B6",
";	c #FFF8CB",
"................................",
"..............+@#..............@",
"..............$%$@............@ ",
".....@@@@.....#&+@.......@@..@  ",
"....@#$@@@..@.*=@@......@#&@@   ",
"....@&#+@@@@+@*%+@@@...@#&*+@   ",
".....@-*+@+@$%%&*+*+@@.*%*+@#   ",
"......@%***&%&*%*&%*#$+%*$@#    ",
".......@=&&#*#*%$#*&&%%*+@#     ",
"......+%==&$@@*&+@.@+%*$@#      ",
"......*=*#=%@.*&$@.%*$&#@       ",
".....*%%#$@=%@*=+@%*+@&%+@      ",
".....*%*$@.@%%*%$%*+@%+%*@      ",
"....+%&+@@..@&*%#*@@%%@&#$      ",
".++$*%#*@+$+@#=&-*+*%%*#*@+++$+#",
"%%&%#&&+&&=%%=&%&%*%&&%%&&%&&%*@",
"@***%%%*****%&%&%%$*+$@@%*#*#**@",
"@@@@*%*@+++$%*&%%*+@%%%@&%@$@@@#",
"...@*%$@...%*@%%**%+@%@#&*+@### ",
"....#&%@@.%*+@=$@%$&$@%&*+@     ",
".....*&+@%*$@@=+@%%+%#&%*$@     ",
".....+&%**@@%@=+@%%@*%%*@@      ",
"......$%%@@%%@%*@@$+*&=*+@#     ",
"......@%&*+@@+&*@+*#=%+*#$@#    ",
".....#%$+=%*+*%#**&*#$#*&*+@#   ",
"....*&%*+$#&%%=-;*#$+*@+*&*@#   ",
"...*%#*+@@@#**&#+$+*@@  $#&*@#  ",
"...+**$@#  @@#%$%@@@     +**@#  ",
"...@$@@#    @*-#@#        @@#   ",
"...@@##      +%*@#              ",
"..@          +**@#              ",
".@            @@#               "};
