/* XPM */
static char * network_32x32_xpm[] = {
"32 32 40 1",
" 	c None",
".	c #010100",
"+	c #C4C4C3",
"@	c #FFFFFF",
"#	c #C0C0C0",
"$	c #F0F0EF",
"%	c #E5E6E4",
"&	c #DCDCDC",
"*	c #D4D4D4",
"=	c #CECECD",
"-	c #BBBBBB",
";	c #B6B6B6",
">	c #808182",
",	c #626262",
"'	c #494B4B",
")	c #575855",
"!	c #1B1B1B",
"~	c #B1B1B0",
"{	c #242729",
"]	c #AAAAAA",
"^	c #A3A4A4",
"/	c #9E9E9E",
"(	c #717371",
"_	c #258584",
":	c #3D6081",
"<	c #6080A3",
"[	c #4D5E79",
"}	c #FDAC5C",
"|	c #A3632F",
"1	c #A87D4B",
"2	c #F9D183",
"3	c #969696",
"4	c #403F41",
"5	c #FA4703",
"6	c #733411",
"7	c #343434",
"8	c #700C03",
"9	c #8A8A89",
"0	c #079506",
"a	c #00FF00",
" ....................           ",
".+@@@@@@@@@@@@@@@@@@#.          ",
".@$%%%&&&**===++#--;>.          ",
".@%,'''''''''''''');>.          ",
".@%'.!............@~>.          ",
".@%'.@............@~>.          ",
".@%'..@.{.........@~>.          ",
".@%'.@..@@........@]>.          ",
".@&'..............@]>.......... ",
".@&'..............@]>.-;;~]]^/*.",
".@&'..............@^>.--;~]]^*>.",
".@*'..............@^>.#-;~~]&>>.",
".@*'..............@/>.@@@@@%>>>.",
".@*'@@@@@@@@@@@@@@@/>.++#-;((((.",
".@*==+++#-;;~~]]^^//>.''''~((((.",
".#>>>>>>>>>>>>>>>>>>>.__:@~((((.",
" ....................___:@]((((.",
"   ..       .&'________::@],(,(.",
"  ..        .&'__<_<___::@^,,,,.",
"  ...       .&'______[_::@^,,,,.",
"   ..       .*'_______:::@/,,,,.",
"  ..  ...   .*'::::::::::@/),,. ",
"  ....}|12  .='@@@@@@@@@@@3))4>.",
"   ..5565.  .=++#-;;~]]^//3)7>-.",
"     .5812   .{{{{{{{{{{{{7{>->.",
"      ...    .>>>>>>>>>>>>>>#((.",
"            .@@@@@@@@@@@@@@#(((.",
"            .$%%&&*=++33~]],,(. ",
"            .$%%&**=9....9^,,.  ",
"            .$0a&*==++&&~~^).   ",
"            .%%&&*==+#~]~]^.    ",
"             ..............     "};
