/* XPM */
static char * package_manager_32x32_xpm[] = {
"32 32 363 2",
"  	c None",
". 	c #001912",
"+ 	c #001A12",
"@ 	c #001D15",
"# 	c #00120B",
"$ 	c #000D02",
"% 	c #EDFFFD",
"& 	c #001007",
"* 	c #00130B",
"= 	c #E6FFFF",
"- 	c #00130C",
"; 	c #00170C",
"> 	c #000F02",
", 	c #F1FFF8",
"' 	c #FCFFEF",
") 	c #FDFBE6",
"! 	c #FFF9E9",
"~ 	c #C6D4C7",
"{ 	c #00120C",
"] 	c #000D07",
"^ 	c #F1FFFB",
"/ 	c #F6FEE9",
"( 	c #FCFFED",
"_ 	c #F2FFF8",
": 	c #000E02",
"< 	c #00160E",
"[ 	c #00110B",
"} 	c #F0FFF6",
"| 	c #F8FFEA",
"1 	c #F8FFDB",
"2 	c #FCFED6",
"3 	c #FFFBD7",
"4 	c #C2AD98",
"5 	c #5B4B3E",
"6 	c #000200",
"7 	c #000500",
"8 	c #F8FFFA",
"9 	c #FCFED7",
"0 	c #FDFED4",
"a 	c #F9FFDB",
"b 	c #F1FFF6",
"c 	c #00160C",
"d 	c #F2FFF6",
"e 	c #FCFCE0",
"f 	c #FCFED9",
"g 	c #FFFCD4",
"h 	c #FFF8D0",
"i 	c #B69270",
"j 	c #370000",
"k 	c #530F06",
"l 	c #330000",
"m 	c #270500",
"n 	c #0F0000",
"o 	c #0A0200",
"p 	c #FFFEC7",
"q 	c #FFFFC6",
"r 	c #FFFED0",
"s 	c #FDFDD9",
"t 	c #F9FFEA",
"u 	c #F9FFD9",
"v 	c #FDFED2",
"w 	c #FBFDD8",
"x 	c #F7E8C9",
"y 	c #270000",
"z 	c #530000",
"A 	c #A41B15",
"B 	c #940403",
"C 	c #6B0000",
"D 	c #631105",
"E 	c #522000",
"F 	c #836A34",
"G 	c #0E0500",
"H 	c #070800",
"I 	c #FEFDD1",
"J 	c #FEFEDA",
"K 	c #FFFED2",
"L 	c #00120E",
"M 	c #EBFFFF",
"N 	c #FBFFF3",
"O 	c #FCFCE2",
"P 	c #FFFECE",
"Q 	c #FFFCCE",
"R 	c #140000",
"S 	c #2A0000",
"T 	c #7B0F05",
"U 	c #AD1917",
"V 	c #C51515",
"W 	c #AC0000",
"X 	c #770000",
"Y 	c #972117",
"Z 	c #721100",
"` 	c #733000",
" .	c #8F752B",
"..	c #BAB466",
"+.	c #080700",
"@.	c #080800",
"#.	c #FFFFC0",
"$.	c #FBFFEF",
"%.	c #001E19",
"&.	c #001410",
"*.	c #ECFFFC",
"=.	c #F6FFE2",
"-.	c #FEFEDC",
";.	c #FCFCDA",
">.	c #060300",
",.	c #160000",
"'.	c #5A0F00",
").	c #8E1001",
"!.	c #C51009",
"~.	c #D81010",
"{.	c #CD1517",
"].	c #A00000",
"^.	c #850000",
"/.	c #AD1C19",
"(.	c #BF1D12",
"_.	c #800000",
":.	c #864D0A",
"<.	c #8A7B1C",
"[.	c #BFB843",
"}.	c #83800D",
"|.	c #0B0A00",
"1.	c #F8FFD9",
"2.	c #E8FFED",
"3.	c #001407",
"4.	c #000800",
"5.	c #FEFFE4",
"6.	c #FFFDD6",
"7.	c #040400",
"8.	c #080300",
"9.	c #574821",
"0.	c #511900",
"a.	c #941502",
"b.	c #C51309",
"c.	c #E10D0A",
"d.	c #E20C0C",
"e.	c #BD0304",
"f.	c #890000",
"g.	c #A30000",
"h.	c #D31213",
"i.	c #BE1705",
"j.	c #610100",
"k.	c #966611",
"l.	c #907D00",
"m.	c #C1BB2F",
"n.	c #83800B",
"o.	c #B8B75D",
"p.	c #070600",
"q.	c #060500",
"r.	c #F9FFD6",
"s.	c #000B09",
"t.	c #000300",
"u.	c #010300",
"v.	c #060400",
"w.	c #7B7948",
"x.	c #85763D",
"y.	c #4C2400",
"z.	c #862700",
"A.	c #CB1603",
"B.	c #E20D09",
"C.	c #D41210",
"D.	c #B30000",
"E.	c #990000",
"F.	c #BB0504",
"G.	c #C20E0D",
"H.	c #960000",
"I.	c #BA0202",
"J.	c #C61913",
"K.	c #AB1504",
"L.	c #600000",
"M.	c #AA831C",
"N.	c #888200",
"O.	c #C1BD28",
"P.	c #858200",
"Q.	c #7C7A3F",
"R.	c #030300",
"S.	c #000B07",
"T.	c #001C17",
"U.	c #000902",
"V.	c #F5FEED",
"W.	c #FDFCDE",
"X.	c #0F0300",
"Y.	c #966F34",
"Z.	c #B6602F",
"`.	c #BC2105",
" +	c #CB1A08",
".+	c #980000",
"++	c #8C0000",
"@+	c #C10F03",
"#+	c #D5120C",
"$+	c #DB100C",
"%+	c #CA0202",
"&+	c #920000",
"*+	c #BA0D09",
"=+	c #C51A10",
"-+	c #951300",
";+	c #471400",
">+	c #AEA433",
",+	c #BFBB36",
"'+	c #BCBA3F",
")+	c #0C0A00",
"!+	c #080600",
"~+	c #FFFDD4",
"{+	c #F6FEE6",
"]+	c #000900",
"^+	c #010200",
"/+	c #FCFDDE",
"(+	c #FFFCD6",
"_+	c #0E0000",
":+	c #1A0000",
"<+	c #9E6A3B",
"[+	c #AB662D",
"}+	c #B76420",
"|+	c #A22F00",
"1+	c #C51F00",
"2+	c #DC1200",
"3+	c #EC0902",
"4+	c #E80A09",
"5+	c #B60000",
"6+	c #910000",
"7+	c #BE1D01",
"8+	c #A92C00",
"9+	c #733C00",
"0+	c #C1B068",
"a+	c #0D0600",
"b+	c #090700",
"c+	c #000C00",
"d+	c #FFFFF6",
"e+	c #060600",
"f+	c #0F0400",
"g+	c #977126",
"h+	c #AF671F",
"i+	c #CE5622",
"j+	c #BE2200",
"k+	c #CE1A00",
"l+	c #CA1B00",
"m+	c #B2240E",
"n+	c #850B00",
"o+	c #780200",
"p+	c #F2976A",
"q+	c #230000",
"r+	c #0F0200",
"s+	c #FFFDCA",
"t+	c #B5B474",
"u+	c #001000",
"v+	c #FFFFF4",
"w+	c #FDFDD7",
"x+	c #040300",
"y+	c #0E0100",
"z+	c #976E38",
"A+	c #A06B25",
"B+	c #AB6C0B",
"C+	c #A96D0D",
"D+	c #9E6C2D",
"E+	c #976C3F",
"F+	c #200000",
"G+	c #190000",
"H+	c #FFF9D4",
"I+	c #FFFDCD",
"J+	c #0A0700",
"K+	c #0D0B00",
"L+	c #BEBC35",
"M+	c #BEBC33",
"N+	c #BBB753",
"O+	c #001300",
"P+	c #000C09",
"Q+	c #FFFFF3",
"R+	c #FFFECB",
"S+	c #050500",
"T+	c #0A0800",
"U+	c #828013",
"V+	c #BBB94C",
"W+	c #FFFECD",
"X+	c #FFFFC9",
"Y+	c #090800",
"Z+	c #0A0900",
"`+	c #BFBC31",
" @	c #C3C00F",
".@	c #C3BF15",
"+@	c #BBB940",
"@@	c #001400",
"#@	c #FFFFC7",
"$@	c #FFFFCD",
"%@	c #FEFECC",
"&@	c #0B0900",
"*@	c #FFFFCE",
"=@	c #0E0C00",
"-@	c #C1BE21",
";@	c #C2BF18",
">@	c #C5C205",
",@	c #FFFFCC",
"'@	c #FFFFBD",
")@	c #B7B568",
"!@	c #BCBA4D",
"~@	c #BFBC2F",
"{@	c #C4C110",
"]@	c #C6C200",
"^@	c #BCBA41",
"/@	c #FFFFCB",
"(@	c #FFFFBF",
"_@	c #FFFFA4",
":@	c #BFBC2D",
"<@	c #C1BF1F",
"[@	c #BDBB42",
"}@	c #FFFFC4",
"|@	c #FFFFB6",
"1@	c #FFFF99",
"2@	c #C5BF0F",
"3@	c #000B0B",
"4@	c #C4C016",
"5@	c #FFFFEA",
"6@	c #FFFF98",
"7@	c #C3BF16",
"8@	c #BCBA43",
"9@	c #000E00",
"0@	c #FFFFDA",
"a@	c #BFBD2C",
"b@	c #C5C00E",
"c@	c #C3BE18",
"d@	c #BCB948",
"e@	c #001200",
"f@	c #A9B68A",
"g@	c #FDFFC6",
"h@	c #FFFFBB",
"i@	c #FFFFB7",
"j@	c #FFFFC2",
"k@	c #C6C201",
"l@	c #C6C105",
"m@	c #C5C00C",
"n@	c #BBBD35",
"o@	c #75812B",
"p@	c #001500",
"q@	c #00190C",
"r@	c #ACB973",
"s@	c #BAB75A",
"t@	c #FFFF9D",
"u@	c #C6C103",
"v@	c #C2BD25",
"w@	c #748132",
"x@	c #001100",
"y@	c #001A07",
"z@	c #001600",
"A@	c #A9BD64",
"B@	c #ADBA62",
"C@	c #BEBB2C",
"D@	c #BEBF25",
"E@	c #7C8601",
"F@	c #71861D",
"G@	c #001900",
"H@	c #ADB96F",
"I@	c #75812D",
"J@	c #AEBB63",
"K@	c #FFFFAF",
"L@	c #FFFF92",
"M@	c #C0BD32",
"N@	c #C2BD23",
"O@	c #BEBF26",
"P@	c #7C8603",
"Q@	c #BAB853",
"R@	c #FFFF88",
"S@	c #BFBA3A",
"T@	c #837F13",
"U@	c #AABF5A",
"V@	c #718526",
"                      . +           @                           ",
"                  # $ % % &       * = $ -                       ",
"              ; > , ' ) ! ~ {   ] ^ / ( _ : <                   ",
"          [ $ } | 1 2 3 4 5 6 7 8 / 9 0 a | b $ {               ",
"      c : d ( e f g h i j k l m n o p q r s e ( _ : c           ",
"  # $ b t u v v w x y z A B C D E F G H I J K 0 a | b $ #       ",
"L M N O J K P Q R S T U V W X Y Z `  ...+.@.#.q r J e $.% { %.  ",
"&.*.=.s -.;.>.,.'.).!.~.{.].^./.(._.:.<.[.}.|.+.K s K 1.2.3.    ",
"  4.5.6.7.8.9.0.a.b.c.d.e.f.^.g.h.i.j.k.l.m.n.o.p.q.P r.4.      ",
"s.t.u.v.w.x.y.z.A.B.C.D.E.F.G.H.I.J.K.L.M.N.O.P.o.Q.q.R.t.S.T.  ",
"L U.V.W.q.X.Y.Z.`. +.+++@+#+$+%+&+*+=+-+;+>+,+'+)+!+~+{+]+L     ",
"    U.^+/+(+_+:+<+[+}+|+1+2+3+4+5+6+7+8+9+0+a+b+P K v.c+        ",
"    s.d+R.7.W.s e+f+g+h+i+j+k+l+m+n+o+p+q+r+Q s++.+.t+u+        ",
"    s.v+w+r 7.x+s ~+y+,.z+A+B+C+D+E+F+G+H+I+J+K+L+M+N+O+        ",
"    P+Q+K R+~+s 7.S+/+s e+T+U+V+T+p.W+X+Y+Z+V+`+ @.@+@@@        ",
"    P+Q+K #@R+$@$@r 7.x+s %@T+&@$@*@@.=@L+-@;@ @>@.@+@@@        ",
"    P+Q+I q q q q ,@~+s 7.q.'@)@@.Z+!@~@{@]@]@]@]@.@^@@@        ",
"    P+Q+K q q q #@#@X+/@/@(@_@^@:@<@;@ @>@]@]@]@]@.@[@@@        ",
"    s.Q+K q q q #@q q }@q |@1@:@2@]@]@]@]@]@]@]@]@.@^@@@        ",
"    3@Q+K q q q q q q q q |@1@:@2@]@]@]@]@]@]@]@]@.@^@@@        ",
"    3@Q+K q q q q q q q q |@1@:@2@]@]@]@]@]@]@]@]@4@^@@@        ",
"    s.Q+K q q q q q q q q |@1@:@2@]@]@]@]@]@]@]@]@.@^@@@        ",
"    $ 5@r q q q q q q q q |@6@:@2@]@]@]@]@]@]@]@]@7@8@O+        ",
"    9@0@R+q q q q q q q q |@6@a@b@]@]@]@]@]@]@]@]@c@d@e@        ",
"    e@f@g@h@i@h@j@q q q q |@6@a@b@]@]@]@]@k@l@m@7@n@o@p@        ",
"    q@u+r@s@t@_@h@q q q q |@6@:@2@]@]@]@]@u@2@v@}.w@x@y@        ",
"        z@e@A@B@i@h@|@h@j@|@1@C@2@k@l@m@7@D@E@F@x@O+            ",
"            G@e@H@s@t@_@h@|@1@:@2@l@2@v@n.I@O+G@                ",
"                p@e@A@J@i@K@L@M@N@O@P@F@x@O+                    ",
"                    G@e@H@Q@R@S@T@I@e@G@                        ",
"                        z@O+U@V@x@O+                            ",
"                            G@G@                                "};
