/* XPM */
static char * printer_32x32_xpm[] = {
"32 32 11 1",
" 	c None",
".	c #000000",
"+	c #FFFFFF",
"@	c #C6C3C6",
"#	c #5A595A",
"$	c #848284",
"%	c #DEDFDE",
"&	c #848200",
"*	c #FFFF00",
"=	c #00FF00",
"-	c #A5A2A5",
"                                ",
"           ...                  ",
"          .+@@...               ",
"         .++@@@@@...            ",
"         .##+++@@@@@...         ",
"        .######+++@@@@@...      ",
"       .#$%%######+++@@@@@...   ",
"      .#$+++@@@######+++@@@@@...",
"     .#$+++++++@@@######+++@@@@.",
"    .#$+++@@@++++.##$###%&&+++#.",
"   .#$++++++++++.##$$$$+%&&&%##.",
"  .#$+++@@@++++.##$$$$+@@@@&%##.",
" .#$$$%+++++++.##$$$$+@@**@@+##.",
".++@@@$$$%+++.##$$$$+@@@@@@+###.",
".@@+++@@@$$$.##$$$$+@@==@@+####.",
".@@@@@+++@@@$$$$$$+@@@@@@+#####.",
".@-@@@@@@+++@@@@$+@@@@@@+######.",
".@----@@@@@@+++$+@@@@@@+#######.",
".@-+++---@@@@@@+++@@@@+########.",
".@@@@@+++---@@@@@@++++#########.",
".@-@@@@@@+++---@@@@@@#########. ",
".@----@@@@@@+++---@@@########.  ",
".@-+++---@@@@@@-++--@#######.   ",
".@@@@@+++---@@@-@@++@######.    ",
"...@@@@@@+++----@@@@@#####.     ",
"   ...@@@@@@+++-@@@@@####.      ",
"      ...@@@@@@-@@@@@###.       ",
"         ...@@@@@@@@@##.        ",
"            ...@@@@@@#.         ",
"               ...@@@.          ",
"                  ...           ",
"                                "};
