/* XPM */
static char * run_16x16_xpm[] = {
"16 17 7 1",
" 	c None",
".	c #000000",
"+	c #FFFFFF",
"@	c #A5A2A5",
"#	c #DEDFDE",
"$	c #848284",
"%	c #C6C3C6",
"                ",
"       ..       ",
"  ..  .+@.  ..  ",
" .#+...+@...+@. ",
" .$%+#$%%@#+%$. ",
"  .@%%%%%%%%$.  ",
"  .$%%@$@%%%%.  ",
" ..#%@$..+%%#.. ",
".++%%$.  .+%%++.",
".$$%%@.  .+%%$$.",
" ..$%%+..+%%@.. ",
"  .%%%%++%%%%.  ",
"  .+%%%%%%%%$.  ",
" .+%$%#%%$%+%$. ",
" .@$...+$...#$. ",
"  ..  .+$.  ..  ",
"       ..       "};
