/* XPM */
static char * screensaver_16x16_xpm[] = {
"16 16 11 1",
" 	c None",
".	c #000000",
"+	c #C0C0C0",
"@	c #F8FCC0",
"#	c #585858",
"$	c #808080",
"%	c #C0C000",
"&	c #0000C0",
"*	c #000080",
"=	c #F8FCF8",
"-	c #C00000",
" .............. ",
".++++.@@@@@@@@..",
".+###.@$@$$@.%..",
".+&&&.@.@.@.$%..",
".+&&&.@%%%%%%%..",
".+&&&&*.@@$...=.",
".+&&&&*.%%.&&&=.",
".+&&**$@%&&&&&=.",
".+&&*%.**&&&&&=.",
".+&&**&&&&&&&&=.",
".++++++++++++++.",
".++++++++++++-+.",
" .............. ",
"    .$+==+$.    ",
"  .$$$$$$$$$$.  ",
"  ............  "};
