/* XPM */
static char * shortcuts_16x16_xpm[] = {
"16 16 5 1",
" 	c None",
".	c #000000",
"+	c #929292",
"@	c #FFFFFF",
"#	c #CBCBCB",
"      ...       ",
"     .+++.      ",
"    .++@@@.     ",
"   .++@@.@@.    ",
"  .++@@.@@@@.   ",
" .++@@....@@@.  ",
".@@@@.@.@@@@@#. ",
".++@@@@.@@@@###.",
".+++@@@.@@@###. ",
" .+++@@@@@###.  ",
"  .+++@@@###.   ",
"   .+++@###.    ",
"    .++@##.     ",
"     .+@#.      ",
"      .@.       ",
"       .        "};
