/* XPM */
static char * sound2_16x16_xpm[] = {
"16 16 6 1",
" 	c None",
".	c #000000",
"+	c #F8FCF8",
"@	c #F8FC00",
"#	c #F8A858",
"$	c #C05800",
"        ...     ",
"       .++.     ",
"      .+...     ",
"      ..++.     ",
"      .+...     ",
"    ....@#.     ",
"   .@#..#$.     ",
"   .#$. ..      ",
"    ..    ..    ",
"         .+.    ",
"         ...    ",
"         . .    ",
"        ..      ",
"       .@#.     ",
"       .#$.     ",
"        ..      "};
