/* XPM */
static char * trash_full_32x32_xpm[] = {
"32 32 16 1",
" 	c None",
".	c #010100",
"+	c #FCF9B7",
"@	c #FFFFFF",
"#	c #CAE9F1",
"$	c #575855",
"%	c #02B8C1",
"&	c #BFB91B",
"*	c #C0C0C0",
"=	c #A3A4A4",
"-	c #798A16",
";	c #FBDFA5",
">	c #FDAC5C",
",	c #1F3B3A",
"'	c #808182",
")	c #DCDCDC",
"        .                       ",
"       .+.     ...              ",
"      .+@+.....###.             ",
"     .+@++.$$$$%%%...... .      ",
"    .+@++&.****$$$.++++..@.     ",
"   .+@++&+.*******.&&&&.++@.    ",
"    .++&+&.=======...-.+++@@.   ",
"     .&+&&.=$.....;;;.&+&+++@.  ",
"      .&&&.=$.***$>>>.&&+&++.   ",
"      ,$&-.=$.****$$$.&&&+&..   ",
"      .,$$$$$.*******.-&&...    ",
"      .===$$$.$'''''$$$$$$$.    ",
"      .===@===$$$$$$$$''$.$.    ",
"      .='=))))=*==''''$'$.$.    ",
"      .='=)@*=*)='===.$'$.$.    ",
"      .='=)@'==)=''='.$'$.$.    ",
"      .='=)@'==)=''='.$'$.$.    ",
"      .='=)@'==)=''='.$'$.$.    ",
"      .='=)@'==)=''='.$'$.$.    ",
"      .='=)@'==)=''='.$'$.$.    ",
"      .='=)@'==)=''='.$'$.$.    ",
"      .='=)@'==)=''='.$'$.$.    ",
"      .='=)@'==)=''='.$'$.$.    ",
"      .='=)@'==)=''='.$'$.$.    ",
"      .='=)@'==)=''='.$'$.$.    ",
"      .='=)@'==)=''='.$'$.$.    ",
"      .===)@'==)=''='.$'$$$.    ",
"      .==))@'==)=''='$$'$$,.    ",
"      .'))@@@'))=$=='$$'$,..    ",
"       ..=@@))))===='$$$$..     ",
"         ...=**=====$$...       ",
"            ..........          "};
