/* XPM */
static char * trash_empty_16x16_xpm[] = {
"16 16 10 1",
" 	c None",
".	c #000000",
"+	c #DEDFDE",
"@	c #A5A2A5",
"#	c #424100",
"$	c #004142",
"%	c #FFFFFF",
"&	c #C6C3C6",
"*	c #848284",
"=	c #5A595A",
"      ..+.      ",
"   ...+@#$....  ",
"  .%%%&&&*.&&@. ",
"  .+@&%%%&&===. ",
"   $*++@@@@**.  ",
"   .@@@**==*=.  ",
"   .@%@+***==.  ",
"   .@%@+***==.  ",
"   .@%@+***==.  ",
"   .@%@+***==.  ",
"   .@%@+***==.  ",
"   .@%@+***==.  ",
"   .@%@+***==.  ",
"   .+%@+***==.  ",
"    ..++@@*..   ",
"      .....     "};
