/* XPM */
static char * xkill_32x32_xpm[] = {
"32 32 394 2",
"  	c None",
". 	c #6C3F3A",
"+ 	c #873430",
"@ 	c #6F3D3C",
"# 	c #763B37",
"$ 	c #883330",
"% 	c #6E3F39",
"& 	c #912F2C",
"* 	c #CD1513",
"= 	c #D71110",
"- 	c #CE1513",
"; 	c #9F2927",
"> 	c #001029",
", 	c #00092C",
"' 	c #000D30",
") 	c #9B2B29",
"! 	c #C61817",
"~ 	c #AB2421",
"{ 	c #F10505",
"] 	c #FA0202",
"^ 	c #FE0000",
"/ 	c #000529",
"( 	c #0C134A",
"_ 	c #021559",
": 	c #000445",
"< 	c #000F3A",
"[ 	c #A42725",
"} 	c #D81010",
"| 	c #FB0303",
"1 	c #F10603",
"2 	c #9D2A27",
"3 	c #000125",
"4 	c #0F0F55",
"5 	c #080C77",
"6 	c #010D87",
"7 	c #001083",
"8 	c #00005C",
"9 	c #000A40",
"0 	c #E10D0C",
"a 	c #F00404",
"b 	c #ED0707",
"c 	c #F80302",
"d 	c #110012",
"e 	c #CBB6EF",
"f 	c #C0B6FF",
"g 	c #0C097E",
"h 	c #0A0981",
"i 	c #060C7C",
"j 	c #001369",
"k 	c #000545",
"l 	c #00103A",
"m 	c #FD0000",
"n 	c #D31312",
"o 	c #942E2C",
"p 	c #CD1515",
"q 	c #B71E20",
"r 	c #610004",
"s 	c #E6ADC0",
"t 	c #CFBADB",
"u 	c #C1BDEF",
"v 	c #BEBBFE",
"w 	c #0D0D65",
"x 	c #001082",
"y 	c #000057",
"z 	c #000132",
"A 	c #A6252A",
"B 	c #780606",
"C 	c #CD1419",
"D 	c #EC070C",
"E 	c #F80203",
"F 	c #EA0809",
"G 	c #C01818",
"H 	c #F48687",
"I 	c #FFF0F1",
"J 	c #CEBEC9",
"K 	c #C5BEDD",
"L 	c #BEBDF6",
"M 	c #BCB8FF",
"N 	c #11077A",
"O 	c #1B0278",
"P 	c #2A005F",
"Q 	c #450238",
"R 	c #8E142B",
"S 	c #DF0E14",
"T 	c #F00605",
"U 	c #D11412",
"V 	c #110000",
"W 	c #780919",
"X 	c #C81324",
"Y 	c #F70303",
"Z 	c #E90708",
"` 	c #C71717",
" .	c #FFC0C1",
"..	c #FFF2F6",
"+.	c #FFF9FF",
"@.	c #C3C2D4",
"#.	c #C4BEE0",
"$.	c #D3B6E4",
"%.	c #EBA2DA",
"&.	c #760030",
"*.	c #BA122B",
"=.	c #DC0D17",
"-.	c #F30407",
";.	c #FF0101",
">.	c #D3110F",
",.	c #9C2A29",
"'.	c #00090B",
").	c #E1ACBC",
"!.	c #E36475",
"~.	c #D31217",
"{.	c #EF0707",
"].	c #E60A0A",
"^.	c #D03A3B",
"/.	c #FFCACB",
"(.	c #FFF2F3",
"_.	c #FFF7F8",
":.	c #FFF3F4",
"<.	c #E99EA5",
"[.	c #D55264",
"}.	c #C91427",
"|.	c #EA0710",
"1.	c #FB0103",
"2.	c #FD0002",
"3.	c #FB0304",
"4.	c #F3030C",
"5.	c #D70D1D",
"6.	c #A71732",
"7.	c #000E0C",
"8.	c #CAC0C8",
"9.	c #EEA8B0",
"0.	c #E55E62",
"a.	c #D01413",
"b.	c #F40403",
"c.	c #E10C0E",
"d.	c #AE0A0B",
"e.	c #FFD3D2",
"f.	c #FFE9E8",
"g.	c #FFD0D1",
"h.	c #EB5557",
"i.	c #D71017",
"j.	c #F70305",
"k.	c #DB0A27",
"l.	c #AC0F44",
"m.	c #530055",
"n.	c #010040",
"o.	c #000D25",
"p.	c #00110E",
"q.	c #BAC8C9",
"r.	c #FFF6F8",
"s.	c #F0A0A1",
"t.	c #D74F4F",
"u.	c #F30505",
"v.	c #A60E0D",
"w.	c #780000",
"x.	c #E13535",
"y.	c #DB0F0E",
"z.	c #FD0100",
"A.	c #D70F19",
"B.	c #CF3551",
"C.	c #5B0030",
"D.	c #290060",
"E.	c #061067",
"F.	c #000C27",
"G.	c #00100E",
"H.	c #B9C9C9",
"I.	c #FFFBFD",
"J.	c #FFF6F6",
"K.	c #FFDEDD",
"L.	c #D74142",
"M.	c #E30B0C",
"N.	c #FB0102",
"O.	c #EC0807",
"P.	c #D24D50",
"Q.	c #E89BA5",
"R.	c #DCB5D2",
"S.	c #CAB8F4",
"T.	c #06154C",
"U.	c #000E1E",
"V.	c #FFFEFF",
"W.	c #FFF5F4",
"X.	c #FFD1D2",
"Y.	c #E44849",
"Z.	c #E20C0C",
"`.	c #E30C0A",
" +	c #DA2828",
".+	c #FF9C9C",
"++	c #FFE3E4",
"@+	c #C7C1CD",
"#+	c #C3C0DF",
"$+	c #B6C7E3",
"%+	c #001017",
"&+	c #FFFBFB",
"*+	c #E32F30",
"=+	c #EE0808",
"-+	c #D03837",
";+	c #FFBAB9",
">+	c #FFEDED",
",+	c #FFF8F8",
"'+	c #FFFCFD",
")+	c #FEFCFF",
"!+	c #B7C8D2",
"~+	c #001012",
"{+	c #000010",
"]+	c #060010",
"^+	c #150007",
"/+	c #FFDDEB",
"(+	c #FF7478",
"_+	c #FB0200",
":+	c #F70302",
"<+	c #C70000",
"[+	c #FFC6C6",
"}+	c #FFEEEF",
"|+	c #FFFAFA",
"1+	c #FFFFFF",
"2+	c #FFFCFF",
"3+	c #000030",
"4+	c #240749",
"5+	c #4C0033",
"6+	c #87001F",
"7+	c #DE0C19",
"8+	c #CF0707",
"9+	c #FFC5C4",
"0+	c #FFF0EF",
"a+	c #0E0027",
"b+	c #44003F",
"c+	c #8E083D",
"d+	c #CD0F33",
"e+	c #ED0512",
"f+	c #F70207",
"g+	c #E30D0D",
"h+	c #DC4C4B",
"i+	c #FFD4D3",
"j+	c #FFF4F3",
"k+	c #FFFEFD",
"l+	c #BACACA",
"m+	c #FFF5FB",
"n+	c #3C0000",
"o+	c #D95064",
"p+	c #D31021",
"q+	c #F80205",
"r+	c #E90713",
"s+	c #F20402",
"t+	c #E20E0D",
"u+	c #DB3C39",
"v+	c #FFCBC9",
"w+	c #FFF4F4",
"x+	c #00100C",
"y+	c #CBC1C0",
"z+	c #FFDEDF",
"A+	c #8E0402",
"B+	c #D01311",
"C+	c #EA070E",
"D+	c #D70E20",
"E+	c #A90025",
"F+	c #AC0026",
"G+	c #DF0A20",
"H+	c #F1040C",
"I+	c #FA0105",
"J+	c #D94D4C",
"K+	c #FFDCDB",
"L+	c #FFFDFD",
"M+	c #E1A7A6",
"N+	c #F56968",
"O+	c #EF0705",
"P+	c #C2172A",
"Q+	c #78002D",
"R+	c #46004F",
"S+	c #500052",
"T+	c #A70943",
"U+	c #DA0B27",
"V+	c #F1040E",
"W+	c #DE0E0C",
"X+	c #EB514F",
"Y+	c #FFD4D5",
"Z+	c #FFF5F6",
"`+	c #706563",
" @	c #830B0A",
".@	c #D41212",
"+@	c #CC151A",
"@@	c #F07C8F",
"#@	c #E8A9D8",
"$@	c #CCB2FF",
"%@	c #28015A",
"&@	c #5B002F",
"*@	c #A60926",
"=@	c #DE0C15",
"-@	c #DC0E0E",
";@	c #E05A59",
">@	c #FFDDDD",
",@	c #BDC7C8",
"'@	c #000F0E",
")@	c #A32725",
"!@	c #C51919",
"~@	c #FFA1A4",
"{@	c #FFEBF2",
"]@	c #D2BBCD",
"^@	c #C8BDDD",
"/@	c #CBBCDB",
"(@	c #D9B2C5",
"_@	c #480000",
":@	c #D53235",
"<@	c #DA1010",
"[@	c #FE6C6C",
"}@	c #FFE0E2",
"|@	c #C7C3C2",
"1@	c #000F0C",
"2@	c #992C29",
"3@	c #F60403",
"4@	c #E80A09",
"5@	c #CA1617",
"6@	c #FF9F9F",
"7@	c #FFE6E7",
"8@	c #FFF8FA",
"9@	c #C7C3C4",
"0@	c #CAC1C4",
"a@	c #1D0000",
"b@	c #F98D8D",
"c@	c #B2100E",
"d@	c #D51112",
"e@	c #F97E80",
"f@	c #DEB0B0",
"g@	c #000907",
"h@	c #C51917",
"i@	c #E60B09",
"j@	c #CD2F2E",
"k@	c #FFB9B7",
"l@	c #FFEEED",
"m@	c #FFF9F8",
"n@	c #0D0000",
"o@	c #DFB3B4",
"p@	c #4D0000",
"q@	c #A91B19",
"r@	c #EF0504",
"s@	c #D31213",
"t@	c #E56F6F",
"u@	c #060100",
"v@	c #B02220",
"w@	c #C12322",
"x@	c #FFBBB9",
"y@	c #FFFFFD",
"z@	c #FEFFFF",
"A@	c #C5C3C6",
"B@	c #030000",
"C@	c #CBC1C2",
"D@	c #120000",
"E@	c #922522",
"F@	c #F90101",
"G@	c #4A0D0C",
"H@	c #DC0F0C",
"I@	c #942422",
"J@	c #370100",
"K@	c #D8B6B5",
"L@	c #D1BFBF",
"M@	c #010002",
"N@	c #000404",
"O@	c #F20606",
"P@	c #DF0D0C",
"Q@	c #AE2320",
"R@	c #B81E1C",
"S@	c #D7110E",
"T@	c #A42723",
"U@	c #000A09",
"V@	c #000809",
"W@	c #B6CAC9",
"X@	c #BCC8C8",
"Y@	c #FCFFFF",
"Z@	c #000002",
"`@	c #D6100F",
" #	c #8A3230",
".#	c #001412",
"+#	c #000C0B",
"@#	c #BCC7C9",
"##	c #FFFDFE",
"$#	c #000305",
"%#	c #001713",
"&#	c #C61915",
"*#	c #853431",
"=#	c #B91E1C",
"-#	c #932F2D",
";#	c #000E0E",
">#	c #B6CACB",
",#	c #C3C4C6",
"'#	c #000607",
")#	c #91302A",
"!#	c #D11410",
"~#	c #E50B0A",
"{#	c #86332F",
"]#	c #001413",
"^#	c #000B0C",
"/#	c #793A35",
"(#	c #B12120",
"_#	c #6D3D39",
":#	c #001210",
"<#	c #922E2C",
"                                                                ",
"    . + + @                                               # $ % ",
"  & * = = - ;         > , '                             ) ! = - ",
"  ~ { ] ^ ^ = $       / ( _ : <                       [ } { | { ",
"  & = { ^ ^ 1 = 2     3 4 5 6 7 8 9               & ! 0 a ] { = ",
"    2 - b c ^ ^ = +   d e f g h i j k l         $ = m m ] { n 2 ",
"      o p b ^ ^ { = q r s t u v w i 6 x y z   A = { ^ ^ { = 2   ",
"        B C D E m ^ F G H I J K L M N O P Q R S ^ m ] T U 2     ",
"        V W X D ^ ^ Y Z `  ...+.@.#.$.%.&.*.=.-.;.^ T >.,.      ",
"        '.).!.~.{.c ^ m ].^./.(._.:.<.[.}.|.1.2.3.4.5.6.        ",
"        7.8.9.0.a.{.^ ^ b.c.d.e.f.g.h.i.D j.2.^ 4.k.l.m.n.o.    ",
"        p.q.r.s.t.} u.] 2.E 0 v.w.x.y.u.^ z.c b A.B.C.D.E.F.    ",
"        G.H.I.J.K.L.y.u.^ 2.b.].M.F u.] z.N.O.p P.Q.R.S.T.U.    ",
"        G.H.V.V.W.X.Y.Z.c z.^ ^ ^ ^ m z.b.`. +.+++r.@+#+$+%+    ",
"        p.H.V.V.&+:./.*+=+c ^ ^ ^ ^ z.c 0 -+;+>+,+'+V.)+!+~+    ",
"        p.H.V.{+]+^+/+(+b c ^ ^ ^ ^ _+:+<+[+}+|+1+1+1+V.H.G.    ",
"        p.H.2+3+4+5+6+7+c z.^ ^ ^ ^ z.c 8+9+0+|+1+1+1+V.H.G.    ",
"        p.H.+.a+b+c+d+e+^ ^ N.f+f+N.z.N.g+h+i+j+&+k+1+V.l+G.    ",
"        p.q.m+n+o+p+e+q+^ ;.f+r+r+f+^ z.s+t+u+v+w+&+V.V.H.p.    ",
"        x+y+z+A+B+T ^ ^ j.C+D+E+F+G+H+I+z.] 0 J+K+:.&+L+l+p.    ",
"        7.M+N+= O+] ^ ^ C+P+Q+R+S+T+U+V+^ z.{ W+X+Y+Z+&+H.G.    ",
"        `+ @.@T ^ ^ Y F +@@@#@$@%@&@*@=@b.N._+:+-@;@>@Z+,@'@    ",
"        )@n T ] ^ ^ F !@~@{@]@^@/@(@_@:@Z.b.z._+T <@[@}@|@1@    ",
"      2@= T ^ m 3@4@5@6@7@8@V.V.9@0@a@b@c@y.O+] N.b.d@e@f@g@    ",
"    # h@T c z.z.i@j@k@l@m@'+1+1+1+9@n@o@p@q@U r@z.N.O.s@t@u@    ",
"    v@`.^ z.1 y.w@x@0+|+y@1+1+z@1+A@B@C@D@  E@U { ] F@T h@G@    ",
"  ; `.3@^ ^ H@I@J@K@L@'+V.1+1+1+1+A@M@9@N@    2 = O@z.] P@Q@    ",
"  R@^ ^ { S@T@    U@V@W@X@Y@1+1+1+A@Z@X@1@      )@P@^ ^ 1 `@2@  ",
"  R@^ ^ =  #          .#+#@#A@##V.A@$#+#%#        &#^ ^ ] { h@# ",
"  *#=#=#-#                ;#V@>#X@,#'#            )#!#~#O@] = {#",
"                              ]#^#,@V@              /#(#} { - _#",
"                                  ;#:#                  <#~ &   "};
