/* XPM */
static char * expand_xpm[] = {
"10 20 30 1",
" 	c None",
".	c #4D799B",
"+	c #477496",
"@	c #11293B",
"#	c #426E8F",
"$	c #E1E1E1",
"%	c #406B8C",
"&	c #DCDCDC",
"*	c #3D6787",
"=	c #D9D9D9",
"-	c #3B6383",
";	c #D4D4D4",
">	c #386180",
",	c #CFCFCF",
"'	c #355D7C",
")	c #C9C9C9",
"!	c #345B79",
"~	c #C4C4C4",
"{	c #325976",
"]	c #BFBFBF",
"^	c #315672",
"/	c #BDBDBD",
"(	c #2F536F",
"_	c #B8B8B8",
":	c #2E506B",
"<	c #B3B3B3",
"[	c #2A4C66",
"}	c #AEAEAE",
"|	c #A9A9A9",
"1	c #A4A4A4",
"..........",
"++@@@@@@++",
"##@$$$$@##",
"%%@&&&&@%%",
"**@====@**",
"--@;;;;@--",
">>@,,,,@>>",
"''@))))@''",
"!!@~~~~@!!",
"{{@]]]]@{{",
"^^@////@^^",
"((@____@((",
"::@<<<<@::",
"[[@}}}}@[[",
"[[@||||@[[",
"[[@1111@[[",
"[[@1111@[[",
"[[@1111@[[",
"[[@@@@@@[[",
"[[[[[[[[[["};
