/* XPM */
static char * taskbarbg_xpm[] = {
"1 25 21 1",
" 	c None",
".	c #DEDEDE",
"+	c #D0D0D0",
"@	c #D4D4D4",
"#	c #D9D9D9",
"$	c #DCDCDC",
"%	c #E1E1E1",
"&	c #CFCFCF",
"*	c #C9C9C9",
"=	c #C4C4C4",
"-	c #BFBFBF",
";	c #BBBBBB",
">	c #B8B8B8",
",	c #B3B3B3",
"'	c #AEAEAE",
")	c #A9A9A9",
"!	c #A0A0A0",
"~	c #9D9D9D",
"{	c #989898",
"]	c #919191",
"^	c #8E8E8E",
".",
"+",
"@",
"#",
"$",
"%",
"%",
"$",
"#",
"@",
"&",
"*",
"=",
"-",
";",
">",
",",
"'",
")",
"!",
"~",
"{",
"]",
"^",
"!"};
