/* XPM */
static char * windows_xpm[] = {
"20 20 4 1",
" 	c None",
".	c #940057",
"+	c #B3307D",
"@	c #D0D0D0",
"                    ",
"                    ",
" ............       ",
" .++++++@+@+.       ",
" .++++++@+@+.       ",
" ............       ",
" .@@@@@@@@@@.       ",
" .@@@@@@@@@@......  ",
" .@@@@@@@@@@.@+@+.  ",
" .@@@@@@@@@@.@+@+.  ",
" .@@@@@@@@@@......  ",
" .@@@@@@@@@@.@@@@.  ",
" ............@@@@.  ",
"      .@@@@@@@@@@.  ",
"      .@@@@@@@@@@.  ",
"      .@@@@@@@@@@.  ",
"      .@@@@@@@@@@.  ",
"      ............  ",
"                    ",
"                    "};
