/* XPM */
static char * maximize_xpm[] = {
"16 20 3 1",
" 	c None",
".	c #EAD97A",
"+	c #000000",
"................",
"................",
"................",
"................",
".......+........",
"......+++.......",
".....+++++......",
".......+........",
"...+...+...+....",
"..++...+...++...",
".+++++++++++++..",
"..++...+...++...",
"...+...+...+....",
".......+........",
".....+++++......",
"......+++.......",
".......+........",
"................",
"................",
"................"};
