/* XPM */
static char * maximizeO_xpm[] = {
"16 20 4 1",
" 	c None",
".	c #EAD97A",
"+	c #23F74B",
"@	c #000000",
"................",
"................",
"................",
"......+++.......",
".....++@++......",
"....++@@@++.....",
"....+@@@@@+.....",
"..+++++@+++++...",
".++@+++@+++@++..",
"++@@+++@+++@@++.",
"+@@@@@@@@@@@@@+.",
"++@@+++@+++@@++.",
".++@+++@+++@++..",
"..+++++@+++++...",
"....+@@@@@+.....",
"....++@@@++.....",
".....++@++......",
"......+++.......",
"................",
"................"};
