/* XPM */
static char * rolldownO_xpm[] = {
"17 20 81 1",
" 	c None",
".	c #EAD97A",
"+	c #EBDA7A",
"@	c #F6D77D",
"#	c #63EE5A",
"$	c #23F249",
"%	c #28F14A",
"&	c #27F14A",
"*	c #44F253",
"=	c #F9D77D",
"-	c #5BF95D",
";	c #816E2E",
">	c #995129",
",	c #93592A",
"'	c #3CFD55",
")	c #7B762F",
"!	c #915C2B",
"~	c #8C632C",
"{	c #3DFC55",
"]	c #F8D87E",
"^	c #F7D77D",
"/	c #FFD580",
"(	c #60F85E",
"_	c #3FFC55",
":	c #FFD581",
"<	c #2CF74D",
"[	c #28FB4E",
"}	c #28FA4E",
"|	c #29FA4E",
"1	c #1AFF4F",
"2	c #7E7730",
"3	c #2BF74D",
"4	c #E2DA78",
"5	c #985329",
"6	c #96572A",
"7	c #94572A",
"8	c #95572A",
"9	c #925B2B",
"0	c #995029",
"a	c #34E046",
"b	c #42F453",
"c	c #2AEF49",
"d	c #9F6F35",
"e	c #94592B",
"f	c #925A2B",
"g	c #8F5F2C",
"h	c #35D743",
"i	c #3CF853",
"j	c #E3DA78",
"k	c #F3D87C",
"l	c #4AF456",
"m	c #2DE546",
"n	c #977536",
"o	c #96592B",
"p	c #8D632C",
"q	c #38CE40",
"r	c #3BFB54",
"s	c #E4DB79",
"t	c #ECDA7B",
"u	c #E7D979",
"v	c #54F559",
"w	c #2FE145",
"x	c #967536",
"y	c #965A2B",
"z	c #915B2B",
"A	c #3FFC56",
"B	c #D8DB76",
"C	c #EFD97B",
"D	c #EDD97B",
"E	c #2FE647",
"F	c #8F632D",
"G	c #96552A",
"H	c #F0D87B",
"I	c #26EC47",
"J	c #975329",
"K	c #30E347",
"L	c #2FF94F",
"M	c #EED87B",
"N	c #EBD97A",
"O	c #42F353",
"P	c #2BF64D",
".................",
".................",
".................",
"..+..@#$%&*=..+..",
"..+..@-;>,'=..+..",
"..+..@-)!~{=..+..",
"..+..@-)!~{=..+..",
"..+..@-)!~{=..+..",
"..]^^/()!~_:^^]..",
"..<[}|12!~1|}[34.",
"..&56789!!8780a4.",
"..bcde!!!!!fghij.",
"..klmno!!!fpqrs..",
"..tuvwxy!zgqABC..",
"..+D4vEF!GhrBH+..",
"..+.DulIJKL4M.+..",
"..+..NkO&PHN..+..",
".................",
".................",
"................."};
