/* XPM */
static char * rolldownA_xpm[] = {
"16 44 25 1",
" 	c None",
".	c #022907",
"+	c #1D762A",
"@	c #197026",
"#	c #196D25",
"$	c #176A23",
"%	c #166621",
"&	c #BDBDBD",
"*	c #828282",
"=	c #156320",
"-	c #D4D4D4",
";	c #135F1E",
">	c #D9D9D9",
",	c #125C1C",
"'	c #DCDCDC",
")	c #10581A",
"!	c #E1E1E1",
"~	c #0F5519",
"{	c #0F5218",
"]	c #0E4E17",
"^	c #0E4B16",
"/	c #CFCFCF",
"(	c #0D4916",
"_	c #C4C4C4",
":	c #BFBFBF",
"................",
"++++++++++++++++",
"@@@@@@@@@@@@@@@@",
"################",
"$..............$",
"%.&&&&&&&&&&&*.%",
"=.&----------*.=",
";.&>>>>>>>>>>*.;",
",.&''''''''''*.,",
").&!..!!!!..!*.)",
"~.&''..''..''*.~",
"{.&>>>....>>>*.{",
"].&----..----*.]",
"^.&//////////*.^",
"(.&__________*.(",
"(.&::::::::::*.(",
"(.************.(",
"(..............(",
"((((((((((((((((",
"((((((((((((((((",
"((((((((((((((((",
"................",
"................",
"++++++++++++++++",
"@@@@@@@@@@@@@@@@",
"################",
"$..............$",
"%.&&&&&&&&&&&*.%",
"=.&----------*.=",
";.&>>>>>>>>>>*.;",
",.&''''''''''*.,",
").&!..!!!!..!*.)",
"~.&''..''..''*.~",
"{.&>>>....>>>*.{",
"].&----..----*.]",
"^.&//////////*.^",
"(.&__________*.(",
"(.&::::::::::*.(",
"(.************.(",
"(..............(",
"((((((((((((((((",
"((((((((((((((((",
"((((((((((((((((",
"................"};
