/* XPM */
static char * rolldownO_xpm[] = {
"16 44 19 1",
" 	c None",
".	c #022907",
"+	c #1D762A",
"@	c #197026",
"#	c #196D25",
"$	c #176A23",
"%	c #166621",
"&	c #BDBDBD",
"*	c #828282",
"=	c #156320",
"-	c #ECECEC",
";	c #135F1E",
">	c #125C1C",
",	c #10581A",
"'	c #0F5519",
")	c #0F5218",
"!	c #0E4E17",
"~	c #0E4B16",
"{	c #0D4916",
"................",
"++++++++++++++++",
"@@@@@@@@@@@@@@@@",
"################",
"$..............$",
"%.&&&&&&&&&&&*.%",
"=.&----------*.=",
";.&----------*.;",
">.&----------*.>",
",.&-..----..-*.,",
"'.&--..--..--*.'",
").&---....---*.)",
"!.&----..----*.!",
"~.&----------*.~",
"{.&----------*.{",
"{.&----------*.{",
"{.************.{",
"{..............{",
"{{{{{{{{{{{{{{{{",
"{{{{{{{{{{{{{{{{",
"{{{{{{{{{{{{{{{{",
"................",
"................",
"++++++++++++++++",
"@@@@@@@@@@@@@@@@",
"################",
"$..............$",
"%.&&&&&&&&&&&*.%",
"=.&----------*.=",
";.&----------*.;",
">.&----------*.>",
",.&----------*.,",
"'.&-..----..-*.'",
").&--..--..--*.)",
"!.&---....---*.!",
"~.&----..----*.~",
"{.&----------*.{",
"{.&----------*.{",
"{.************.{",
"{..............{",
"{{{{{{{{{{{{{{{{",
"{{{{{{{{{{{{{{{{",
"{{{{{{{{{{{{{{{{",
"................"};
