/* XPM */
static char * desktop_xpm[] = {
"20 20 4 1",
" 	c None",
".	c #0D4916",
"+	c #258332",
"@	c #D0D0D0",
"                    ",
"                    ",
" .................  ",
" .+++++++++++++++.  ",
" .+++++++++++++++.  ",
" .................  ",
" .@@@@@@@@@@@@@@@.  ",
" .@@@@@@@@@@@@@@@.  ",
" .@@@@@@@@@@@@@@@.  ",
" .@@@@@@@@@@@@@@@.  ",
" .@@@@@@@@@@@@@@@.  ",
" .@@@@@@@@@@@@@@@.  ",
" .@@@@@@@@@@@@@@@.  ",
" .@@@@@@@@@@@@@@@.  ",
" .@@@@@@@@@@@@@@@.  ",
" .@@@@@@@@@@@@@@@.  ",
" .@@@@@@@@@@@@@@@.  ",
" .................  ",
"                    ",
"                    "};
