/* XPM */
static char * expand_xpm[] = {
"10 20 30 1",
" 	c None",
".	c #1D762A",
"+	c #197026",
"@	c #022907",
"#	c #196D25",
"$	c #E1E1E1",
"%	c #176A23",
"&	c #DCDCDC",
"*	c #166621",
"=	c #D9D9D9",
"-	c #156320",
";	c #D4D4D4",
">	c #135F1E",
",	c #CFCFCF",
"'	c #125C1C",
")	c #C9C9C9",
"!	c #10581A",
"~	c #C4C4C4",
"{	c #0F5519",
"]	c #BFBFBF",
"^	c #0F5218",
"/	c #BDBDBD",
"(	c #0E4E17",
"_	c #B8B8B8",
":	c #0E4B16",
"<	c #B3B3B3",
"[	c #0D4916",
"}	c #AEAEAE",
"|	c #A9A9A9",
"1	c #A4A4A4",
"..........",
"++@@@@@@++",
"##@$$$$@##",
"%%@&&&&@%%",
"**@====@**",
"--@;;;;@--",
">>@,,,,@>>",
"''@))))@''",
"!!@~~~~@!!",
"{{@]]]]@{{",
"^^@////@^^",
"((@____@((",
"::@<<<<@::",
"[[@}}}}@[[",
"[[@||||@[[",
"[[@1111@[[",
"[[@1111@[[",
"[[@1111@[[",
"[[@@@@@@[[",
"[[[[[[[[[["};
