/* XPM */
static char * icewm_xpm[] = {
"56 19 149 2",
"  	c None",
". 	c #1C7529",
"+ 	c #186F25",
"@ 	c #186B24",
"# 	c #166721",
"$ 	c #065D12",
"% 	c #14661F",
"& 	c #156320",
"* 	c #C5D9C8",
"= 	c #C2D6C4",
"- 	c #236D2D",
"; 	c #135F1E",
"> 	c #FFFFFF",
", 	c #92B597",
"' 	c #115E1D",
") 	c #93B597",
"! 	c #115B1B",
"~ 	c #C4D6C6",
"{ 	c #FAFBFA",
"] 	c #2C6E35",
"^ 	c #2D6E35",
"/ 	c #125C1C",
"( 	c #145D1E",
"_ 	c #155E1E",
": 	c #145E1E",
"< 	c #135D1D",
"[ 	c #155E1F",
"} 	c #0F5719",
"| 	c #447C4C",
"1 	c #FAFCFA",
"2 	c #AAC3AE",
"3 	c #10581A",
"4 	c #11581B",
"5 	c #ABC4AF",
"6 	c #437B4B",
"7 	c #145A1E",
"8 	c #58895F",
"9 	c #C6D7C9",
"0 	c #DFE8E0",
"a 	c #D5E1D6",
"b 	c #9CBAA1",
"c 	c #588A5F",
"d 	c #185D22",
"e 	c #6A9670",
"f 	c #C1D3C4",
"g 	c #E0E8E0",
"h 	c #D8E4DA",
"i 	c #A9C2AC",
"j 	c #387340",
"k 	c #0E5418",
"l 	c #095013",
"m 	c #ADC5B0",
"n 	c #417849",
"o 	c #42794A",
"p 	c #ACC4B0",
"q 	c #66926C",
"r 	c #A1BBA4",
"s 	c #21602A",
"t 	c #11551B",
"u 	c #8BAB8F",
"v 	c #82A687",
"w 	c #C3D4C5",
"x 	c #42784A",
"y 	c #0A5014",
"z 	c #5E8C64",
"A 	c #B8CDBB",
"B 	c #FDFDFD",
"C 	c #0E5017",
"D 	c #306837",
"E 	c #F5F7F5",
"F 	c #C7D6C9",
"G 	c #C7D6CA",
"H 	c #F4F7F4",
"I 	c #DCE5DD",
"J 	c #ABC2AE",
"K 	c #92B196",
"L 	c #93B297",
"M 	c #A3BDA6",
"N 	c #3A7041",
"O 	c #094C12",
"P 	c #0D4F16",
"Q 	c #105119",
"R 	c #FCFDFC",
"S 	c #FBFBFB",
"T 	c #0D4A16",
"U 	c #0A4813",
"V 	c #92AD96",
"W 	c #91AC95",
"X 	c #F0F4F0",
"Y 	c #729477",
"Z 	c #608766",
"` 	c #5E8664",
" .	c #57805D",
"..	c #56805D",
"+.	c #0E4B17",
"@.	c #0C4915",
"#.	c #104C19",
"$.	c #0C4815",
"%.	c #1B5424",
"&.	c #F4F6F4",
"*.	c #C7D5CA",
"=.	c #688D6D",
"-.	c #03420D",
";.	c #084512",
">.	c #074410",
",.	c #003D07",
"'.	c #F7F9F8",
").	c #FEFEFE",
"!.	c #104B18",
"~.	c #084511",
"{.	c #527D59",
"].	c #0D4916",
"^.	c #386940",
"/.	c #E3EAE4",
"(.	c #678B6C",
"_.	c #174F1F",
":.	c #2F6337",
"<.	c #698F70",
"[.	c #CDD9CF",
"}.	c #97B19B",
"|.	c #7C9D81",
"1.	c #185020",
"2.	c #5B8461",
"3.	c #D8E1D9",
"4.	c #E9EEEA",
"5.	c #0A4714",
"6.	c #245A2C",
"7.	c #9AB39E",
"8.	c #D2DDD3",
"9.	c #EDF1ED",
"0.	c #D0DCD3",
"a.	c #99B29D",
"b.	c #34663B",
"c.	c #1E5626",
"d.	c #81A086",
"e.	c #C9D6CA",
"f.	c #E6ECE7",
"g.	c #BACBBD",
"h.	c #45734B",
"i.	c #003B04",
"j.	c #0A4713",
"k.	c #01400A",
"l.	c #003C05",
"m.	c #01400B",
"n.	c #094612",
"o.	c #0B4714",
"p.	c #03410C",
"q.	c #003E08",
"r.	c #074511",
". . . . . . . . . . . . . . . . . . . . . . . . . . . . . . . . . . . . . . . . . . . . . . . . . . . . . . . . ",
"+ + + + + + + + + + + + + + + + + + + + + + + + + + + + + + + + + + + + + + + + + + + + + + + + + + + + + + + + ",
"@ @ @ @ @ @ @ @ @ @ @ @ @ @ @ @ @ @ @ @ @ @ @ @ @ @ @ @ @ @ @ @ @ @ @ @ @ @ @ @ @ @ @ @ @ @ @ @ @ @ @ @ @ @ @ @ ",
"# # # # # # # $ $ $ % # # # # % $ $ $ # # # # # # # # # # # # # # # # # # # # # # # # # # # # # # # # # # # # # ",
"& & & & & & & * * = - & & & & - = * * & & & & & & & & & & & & & & & & & & & & & & & & & & & & & & & & & & & & & ",
"; ; ; ; ; ; ; > > > , ' ; ; ' ) > > > ; ; ; ; ; ; ; ; ; ; ; ; ; ; ; ; ; ; ; ; ; ; ; ; ; ; ; ; ; ; ; ; ; ; ; ; ; ",
"! ! ! ! ! ! ! > > ~ { ] ! ! ^ { ~ > > ! ! ! / ( _ : < / ! ! ! [ [ / ( [ ( < / ! ! [ [ ! ! ! ! [ [ ! ! ! ! ! ! ! ",
"} } } } } } } > > | 1 2 3 4 5 { 6 > > } } 7 8 9 0 a b c d } } > > e f g h i j } } > > } } } } > > } } } } } } } ",
"k k k k k k k > > l m > n o > p l > > k k q > r s t u > v k k > > w x y z > A k k > B k k k k > > k k k k k k k ",
"C C C C C C C > > C D E F G H D C > > C C I > J K L M > { C C > > N O P Q > R C C > S C C C P > > C C C C C C C ",
"T T T T T T T > > T U V > > W U T > > T T X > Y Z Z `  ...T T > > +.T T T > > T T > B @.T T #.> > T T T T T T T ",
"$.$.$.$.$.$.$.> > $.$.%.E &.%.$.$.> > $.$.*.> =.-.;.>.-.,.$.$.> > $.$.$.$.> > $.$.'.).!.$.~.{.> > $.$.$.$.$.$.$.",
"].].].].].].].> > ].].].!.!.].].].> > ].].^.{ /.(._.:.<.[.].].> > ].].].].> > ].].}.> |.1.2.3.> > ].].].].].].].",
"].].].].].].].4.4.].].].].].].].].4.4.].].5.6.7.8.9.0.a.b.].].4.4.].].].].4.4.].].c.d.e.f.g.h.4.4.].].].].].].].",
"].].].].].].].i.i.].].].].].].].].i.i.].].].j.k.,.l.,.m.n.].].i.i.].].].].i.i.].].o.p.,.l.q.r.i.i.].].].].].].].",
"].].].].].].].].].].].].].].].].].].].].].].].].].].].].].].].].].].].].].].].].].].].].].].].].].].].].].].].].",
"].].].].].].].].].].].].].].].].].].].].].].].].].].].].].].].].].].].].].].].].].].].].].].].].].].].].].].].].",
"].].].].].].].].].].].].].].].].].].].].].].].].].].].].].].].].].].].].].].].].].].].].].].].].].].].].].].].].",
"].].].].].].].].].].].].].].].].].].].].].].].].].].].].].].].].].].].].].].].].].].].].].].].].].].].].].].].]."};
