/* XPM */
static char * colon_xpm[] = {
"6 20 2 1",
" 	c None",
".	c #000000",
"      ",
"      ",
"      ",
"      ",
"      ",
"      ",
"  ..  ",
"  ..  ",
"      ",
"      ",
"      ",
"      ",
"  ..  ",
"  ..  ",
"      ",
"      ",
"      ",
"      ",
"      ",
"      "};
