/* XPM */
static char * n0_xpm[] = {
"10 20 41 1",
" 	c None",
".	c #EAD97A",
"+	c #E9D879",
"@	c #D9B241",
"#	c #D8B140",
"$	c #D9B342",
"%	c #E9D779",
"&	c #D8B13E",
"*	c #E0C258",
"=	c #E0C35A",
"-	c #D7AF3C",
";	c #E6D16E",
">	c #D2A228",
",	c #E6D06E",
"'	c #DAB646",
")	c #DCB94B",
"!	c #DDBC50",
"~	c #DAB544",
"{	c #D3A52C",
"]	c #E2C861",
"^	c #E2CA64",
"/	c #D3A42B",
"(	c #D19E23",
"_	c #E4CC67",
":	c #E4CC68",
"<	c #D09D20",
"[	c #D2A32A",
"}	c #E0C45B",
"|	c #D2A329",
"1	c #DAB343",
"2	c #D7AE3A",
"3	c #E5CF6C",
"4	c #CB900E",
"5	c #E7D372",
"6	c #E7D473",
"7	c #CA8F0D",
"8	c #CF9C1F",
"9	c #E4CD69",
"0	c #E5D06D",
"a	c #D8AF3B",
"b	c #CA8D0A",
"..........",
"..........",
"..........",
"..........",
"..........",
"..+@#$$%..",
"..&*..=-..",
".;>....>,.",
".')....!~.",
".{]....^/.",
".(_....:<.",
".[=....}|.",
".12....2$.",
".345..673.",
"..2890(2..",
"..%abb2%..",
"..........",
"..........",
"..........",
".........."};
