/* XPM */
static char * n2_xpm[] = {
"10 20 56 1",
" 	c None",
".	c #EAD97A",
"+	c #E1C65E",
"@	c #D2A32A",
"#	c #D4A62E",
"$	c #E4CC68",
"%	c #E4CD69",
"&	c #CF9C1F",
"*	c #E1C65D",
"=	c #E6D16E",
"-	c #CE9A1C",
";	c #E7D474",
">	c #D9B240",
",	c #D7AE3A",
"'	c #CE991A",
")	c #CC9412",
"!	c #D8B23F",
"~	c #DCBC4F",
"{	c #DCB94C",
"]	c #D09D20",
"^	c #D5AB36",
"/	c #D09D21",
"(	c #D9B443",
"_	c #DAB343",
":	c #E9D879",
"<	c #DDBC50",
"[	c #DBB84A",
"}	c #E7D576",
"|	c #CD9514",
"1	c #E3CA63",
"2	c #D5AA33",
"3	c #D6AA35",
"4	c #DCBB4E",
"5	c #CF9A1D",
"6	c #E8D677",
"7	c #CC9413",
"8	c #E6D16F",
"9	c #E4CF6B",
"0	c #CB9312",
"a	c #E7D473",
"b	c #CD9718",
"c	c #DEBF55",
"d	c #D5A931",
"e	c #CA8E0A",
"f	c #D1A026",
"g	c #D2A228",
"h	c #D3A42B",
"i	c #D3A52D",
"j	c #D3A72F",
"k	c #E8D778",
"l	c #E4CC67",
"m	c #E3C963",
"n	c #E1C75F",
"o	c #E1C55C",
"p	c #E2C861",
"q	c #E6D06E",
"..........",
"..........",
"..........",
"..........",
"..........",
"..+@#@$...",
".%&*==-;..",
".>,').!~..",
".{]^/.(_..",
".:<[}}|1..",
".....23...",
"....456...",
"...+78....",
"..901.....",
".abc......",
".defghij3k",
".almnopqk.",
"..........",
"..........",
".........."};
