/* XPM */
static char * n3_xpm[] = {
"10 20 50 1",
" 	c None",
".	c #EAD97A",
"+	c #E9D779",
"@	c #DAB445",
"#	c #CC9413",
"$	c #CA900D",
"%	c #D1A026",
"&	c #E5CF6C",
"*	c #D5AA33",
"=	c #D2A32A",
"-	c #E6D16F",
";	c #DEBE53",
">	c #CE9719",
",	c #E8D778",
"'	c #E7D576",
")	c #CC9414",
"!	c #DDBA4D",
"~	c #D3A42A",
"{	c #E8D677",
"]	c #E3CA65",
"^	c #CC9616",
"/	c #E2C861",
"(	c #D09D1F",
"_	c #E3CB65",
":	c #E6D06E",
"<	c #E0C35B",
"[	c #D09C1F",
"}	c #D7AD39",
"|	c #DBB748",
"1	c #D5A933",
"2	c #E8D574",
"3	c #DDBC4F",
"4	c #D09E22",
"5	c #E2C862",
"6	c #D6AA35",
"7	c #D3A52D",
"8	c #CD9516",
"9	c #E5CD69",
"0	c #E2C760",
"a	c #D09D20",
"b	c #DDBC50",
"c	c #E7D474",
"d	c #CF9C1F",
"e	c #DCBA4C",
"f	c #DBB84A",
"g	c #CE991B",
"h	c #CE991C",
"i	c #CD9718",
"j	c #D5AA34",
"k	c #E7D473",
"..........",
"..........",
"..........",
"..........",
"..........",
"..+@#$%&..",
"..*=-.;>,.",
".')!~{.=].",
".+^/(_.(:.",
"..<[}.|1..",
"...234=,..",
"...567849.",
".......0a.",
"..bc....d.",
"..e7'.,@4.",
"...fghijk.",
"..........",
"..........",
"..........",
".........."};
