/* XPM */
static char * n7_xpm[] = {
"10 20 26 1",
" 	c None",
".	c #EAD97A",
"+	c #E1C65E",
"@	c #D9B240",
"#	c #D9B241",
"$	c #D9B443",
"%	c #DAB646",
"&	c #CD9718",
"*	c #DEBD52",
"=	c #E9D779",
"-	c #CA8E0C",
";	c #E6D06E",
">	c #CE991B",
",	c #D7AE3A",
"'	c #CE9717",
")	c #E3CB66",
"!	c #E5CF6B",
"~	c #CC9414",
"{	c #DBB748",
"]	c #D6AE38",
"^	c #D19F23",
"/	c #E7D676",
"(	c #CC9311",
"_	c #E1C55C",
":	c #D4A830",
"<	c #DDBB4E",
"..........",
"..........",
"..........",
"..........",
"..........",
".+@#$%&*..",
".....=-;..",
".....+>...",
".....,#...",
".....')...",
"....!~....",
"....{]....",
"....^+....",
".../(=....",
"..._:.....",
"...<<.....",
"..........",
"..........",
"..........",
".........."};
