/* XPM */
static char * frameABL_xpm[] = {
"6 6 6 1",
" 	c None",
".	c #321344",
"+	c #53286B",
"@	c #572D70",
"#	c #5D3276",
"$	c #63387B",
".+@#$.",
".+@#$$",
".+@###",
".+@@@@",
".+++++",
"......"};
