/* XPM */
static char * frameAT_xpm[] = {
"6 27 16 1",
" 	c None",
".	c #11293B",
"+	c #4D799B",
"@	c #477496",
"#	c #426E8F",
"$	c #406B8C",
"%	c #3D6787",
"&	c #3B6383",
"*	c #386180",
"=	c #355D7C",
"-	c #345B79",
";	c #325976",
">	c #315672",
",	c #2F536F",
"'	c #2E506B",
")	c #2A4C66",
"      ",
"      ",
"      ",
"      ",
"      ",
"      ",
"......",
"++++++",
"@@@@@@",
"######",
"$$$$$$",
"%%%%%%",
"&&&&&&",
"******",
"======",
"------",
";;;;;;",
">>>>>>",
",,,,,,",
"''''''",
"))))))",
"))))))",
"))))))",
"))))))",
"))))))",
"))))))",
"))))))"};
