/* XPM */
static char * rollupA_xpm[] = {
"16 44 25 1",
" 	c None",
".	c #11293B",
"+	c #4D799B",
"@	c #477496",
"#	c #426E8F",
"$	c #406B8C",
"%	c #3D6787",
"&	c #BDBDBD",
"*	c #828282",
"=	c #3B6383",
"-	c #D4D4D4",
";	c #386180",
">	c #D9D9D9",
",	c #355D7C",
"'	c #DCDCDC",
")	c #345B79",
"!	c #E1E1E1",
"~	c #325976",
"{	c #315672",
"]	c #2F536F",
"^	c #2E506B",
"/	c #CFCFCF",
"(	c #2A4C66",
"_	c #C4C4C4",
":	c #BFBFBF",
"................",
"++++++++++++++++",
"@@@@@@@@@@@@@@@@",
"################",
"$..............$",
"%.&&&&&&&&&&&*.%",
"=.&----------*.=",
";.&>>>>>>>>>>*.;",
",.&''''''''''*.,",
").&!!!!..!!!!*.)",
"~.&'''....'''*.~",
"{.&>>..>>..>>*.{",
"].&-..----..-*.]",
"^.&//////////*.^",
"(.&__________*.(",
"(.&::::::::::*.(",
"(.************.(",
"(..............(",
"((((((((((((((((",
"((((((((((((((((",
"((((((((((((((((",
"................",
"................",
"++++++++++++++++",
"@@@@@@@@@@@@@@@@",
"################",
"$..............$",
"%.&&&&&&&&&&&*.%",
"=.&----------*.=",
";.&>>>>>>>>>>*.;",
",.&''''''''''*.,",
").&!!!!..!!!!*.)",
"~.&'''....'''*.~",
"{.&>>..>>..>>*.{",
"].&-..----..-*.]",
"^.&//////////*.^",
"(.&__________*.(",
"(.&::::::::::*.(",
"(.************.(",
"(..............(",
"((((((((((((((((",
"((((((((((((((((",
"((((((((((((((((",
"................"};
