/* XPM */
static char * frameABR_xpm[] = {
"33 6 10 1",
" 	c None",
".	c #46012A",
"+	c #CFCFCF",
"@	c #C4C4C4",
"#	c #BDBDBD",
"$	c #AEAEAE",
"%	c #871F5C",
"&	c #821C58",
"*	c #7B1752",
"=	c #74134C",
"............................+@#$.",
".++++++.%%%%%.+++++++++++++++@#$.",
".@@@@@@.&&&&&.@@@@@@@@@@@@@@@@#$.",
".######.*****.#################$.",
".$$$$$$.=====.$$$$$$$$$$$$$$$$$$.",
"................................."};
