/* XPM */
static char * taskbuttonactive_xpm[] = {
"1 24 17 1",
" 	c None",
".	c #B5327F",
"+	c #B02E7A",
"@	c #AB2975",
"#	c #A72571",
"$	c #A2206D",
"%	c #9D1C68",
"&	c #981863",
"*	c #94145F",
"=	c #91115C",
"-	c #8C0E58",
";	c #870B54",
">	c #820850",
",	c #7E054C",
"'	c #790248",
")	c #74134C",
"!	c #740044",
".",
"+",
"@",
"#",
"$",
"%",
"&",
"*",
"=",
"-",
";",
">",
",",
"'",
")",
")",
")",
")",
")",
")",
")",
")",
"!",
"!"};
