/* XPM */
static char * rolldownO_xpm[] = {
"16 44 20 1",
" 	c None",
".	c #46012A",
"+	c #B5327F",
"@	c #B02E7A",
"#	c #AB2975",
"$	c #A72571",
"%	c #A2206D",
"&	c #BDBDBD",
"*	c #828282",
"=	c #9D1C68",
"-	c #ECECEC",
";	c #981863",
">	c #94145F",
",	c #91115C",
"'	c #8C0E58",
")	c #870B54",
"!	c #820850",
"~	c #7E054C",
"{	c #790248",
"]	c #74134C",
"................",
"++++++++++++++++",
"@@@@@@@@@@@@@@@@",
"################",
"$..............$",
"%.&&&&&&&&&&&*.%",
"=.&----------*.=",
";.&----------*.;",
">.&----------*.>",
",.&-..----..-*.,",
"'.&--..--..--*.'",
").&---....---*.)",
"!.&----..----*.!",
"~.&----------*.~",
"{.&----------*.{",
"].&----------*.]",
"].************.]",
"]..............]",
"]]]]]]]]]]]]]]]]",
"]]]]]]]]]]]]]]]]",
"]]]]]]]]]]]]]]]]",
"................",
"................",
"++++++++++++++++",
"@@@@@@@@@@@@@@@@",
"################",
"$..............$",
"%.&&&&&&&&&&&*.%",
"=.&----------*.=",
";.&----------*.;",
">.&----------*.>",
",.&-..----..-*.,",
"'.&--..--..--*.'",
").&---....---*.)",
"!.&----..----*.!",
"~.&----------*.~",
"{.&----------*.{",
"].&----------*.]",
"].************.]",
"]..............]",
"]]]]]]]]]]]]]]]]",
"]]]]]]]]]]]]]]]]",
"]]]]]]]]]]]]]]]]",
"................"};
