/* XPM */
static char * titleAB_xpm[] = {
"1 22 16 1",
" 	c None",
".	c #46012A",
"+	c #D4D4D4",
"@	c #D9D9D9",
"#	c #DCDCDC",
"$	c #E1E1E1",
"%	c #CFCFCF",
"&	c #C9C9C9",
"*	c #C4C4C4",
"=	c #BFBFBF",
"-	c #BDBDBD",
";	c #B8B8B8",
">	c #B3B3B3",
",	c #AEAEAE",
"'	c #A9A9A9",
")	c #A4A4A4",
".",
"+",
"@",
"#",
"$",
"$",
"#",
"@",
"+",
"%",
"&",
"*",
"=",
"-",
";",
">",
",",
"'",
")",
")",
")",
"."};
