/* XPM */
static char * collapse_xpm[] = {
"12 22 4 1",
" 	c None",
".	c #777777",
"+	c #D6D6D7",
"@	c #B7B8B9",
"............",
".++++++++++.",
".+@@@@@@@@+.",
".+@@@@@@@@+.",
".+@@@@@@@@+.",
".+@@@@@@@@+.",
".+@@@@@@@@+.",
".+@@@@@@@@+.",
".+@@@@@@@@+.",
".+@@@@@@@@+.",
".+@@@@@@@@+.",
".+@@@@@@@@+.",
".+@@@@@@@@+.",
".+@@@@@@@@+.",
".+@@@@@@@@+.",
".+@@@@@@@@+.",
".+@@@@@@@@+.",
".+@@@@@@@@+.",
".+@@@@@@@@+.",
".+@@@@@@@@+.",
".++++++++++.",
"............"};
