/* XPM */
static char * icewm_xpm[] = {
"22 22 367 2",
"  	c None",
". 	c #42679A",
"+ 	c #1E4C9C",
"@ 	c #204EAB",
"# 	c #2652B0",
"$ 	c #2954B2",
"% 	c #2C57B3",
"& 	c #2D57B1",
"* 	c #2B57AF",
"= 	c #2758A4",
"- 	c #23579A",
"; 	c #285AA5",
"> 	c #2D59AE",
", 	c #325AB8",
"' 	c #3860C2",
") 	c #3D63C9",
"! 	c #3C64CB",
"~ 	c #385FBC",
"{ 	c #486CA7",
"] 	c #41648D",
"^ 	c #2051A9",
"/ 	c #4171C6",
"( 	c #4677C2",
"_ 	c #4B7AC0",
": 	c #5986C6",
"< 	c #6E99D6",
"[ 	c #82A9E2",
"} 	c #94B8EB",
"| 	c #A2C3F2",
"1 	c #A0C1F1",
"2 	c #92B5EB",
"3 	c #80A9E3",
"4 	c #6E99D9",
"5 	c #5A88CC",
"6 	c #4273B9",
"7 	c #3265B0",
"8 	c #3364B8",
"9 	c #2C5AB8",
"0 	c #375988",
"a 	c #113E82",
"b 	c #4072C6",
"c 	c #5A8CD3",
"d 	c #5A8ACC",
"e 	c #6897D7",
"f 	c #77A4E1",
"g 	c #85AEE9",
"h 	c #90B6EF",
"i 	c #95B9F2",
"j 	c #84A2E2",
"k 	c #83A1E3",
"l 	c #92B8F0",
"m 	c #8EB6F1",
"n 	c #83AFEC",
"o 	c #75A1E3",
"p 	c #6A99DB",
"q 	c #598BCF",
"r 	c #4A7DC3",
"s 	c #2D61B4",
"t 	c #14418C",
"u 	c #0B3983",
"v 	c #457AC7",
"w 	c #4B80C6",
"x 	c #598CD1",
"y 	c #6999DD",
"z 	c #76A5E7",
"A 	c #81AEEE",
"B 	c #8BB5F3",
"C 	c #83A8EA",
"D 	c #EAECEC",
"E 	c #EFF0EE",
"F 	c #7EA0E5",
"G 	c #8AB5F4",
"H 	c #79A0E5",
"I 	c #C8D1E2",
"J 	c #CCD4E2",
"K 	c #98A5CE",
"L 	c #4A7CC8",
"M 	c #2961AC",
"N 	c #104093",
"O 	c #0B3A84",
"P 	c #3D73BE",
"Q 	c #4A81CA",
"R 	c #5C90D8",
"S 	c #689BE4",
"T 	c #74A6EC",
"U 	c #7DACF1",
"V 	c #86B3F5",
"W 	c #7AA3EA",
"X 	c #F2F3F3",
"Y 	c #F5F6F5",
"Z 	c #769CE5",
"` 	c #81AEF3",
" .	c #BBC8E8",
"..	c #F1F2F0",
"+.	c #698DD3",
"@.	c #5088D3",
"#.	c #336BB9",
"$.	c #124195",
"%.	c #0C3D88",
"&.	c #3A71BD",
"*.	c #4C85D0",
"=.	c #5A91DD",
"-.	c #669CE7",
";.	c #668DD9",
">.	c #73A6EE",
",.	c #7AACF1",
"'.	c #6F9AE5",
").	c #F7F8F8",
"!.	c #F9F9F8",
"~.	c #6D96E2",
"{.	c #94ACE1",
"].	c #F7F8F7",
"^.	c #97AEDF",
"/.	c #5E96E4",
"(.	c #518BD8",
"_.	c #3D77C6",
":.	c #124396",
"<.	c #0E3F8B",
"[.	c #3B75C3",
"}.	c #4C85D5",
"|.	c #5791E0",
"1.	c #6B8FD8",
"2.	c #EDF0F5",
"3.	c #C3D0EB",
"4.	c #6D8DD7",
"5.	c #5E83D4",
"6.	c #FCFCFC",
"7.	c #FDFDFC",
"8.	c #6C8AD3",
"9.	c #F6F8FA",
"0.	c #FBFBFA",
"a.	c #CBD6EE",
"b.	c #6298E8",
"c.	c #5C96E6",
"d.	c #508CDD",
"e.	c #417DCF",
"f.	c #144599",
"g.	c #0F418D",
"h.	c #3A78C7",
"i.	c #4985D7",
"j.	c #5590E1",
"k.	c #618CDA",
"l.	c #F2F4F6",
"m.	c #FBFCFC",
"n.	c #617FCD",
"o.	c #E1E8F5",
"p.	c #F0F4F9",
"q.	c #6291DE",
"r.	c #5A96E6",
"s.	c #5793E6",
"t.	c #4D8BDE",
"u.	c #3B77CE",
"v.	c #15489C",
"w.	c #104490",
"x.	c #3472C6",
"y.	c #4684D7",
"z.	c #4E8CDF",
"A.	c #5492E2",
"B.	c #9CB2E0",
"C.	c #F3F6FA",
"D.	c #7696D7",
"E.	c #4F83D6",
"F.	c #FEFEFD",
"G.	c #FDFDFD",
"H.	c #F2F5F9",
"I.	c #5987D5",
"J.	c #5090E0",
"K.	c #4D8DE0",
"L.	c #4685DA",
"M.	c #3370CB",
"N.	c #164B9F",
"O.	c #124893",
"P.	c #296AC2",
"Q.	c #3F81D4",
"R.	c #4585DA",
"S.	c #4679CF",
"T.	c #BAC9E8",
"U.	c #8EA9DD",
"V.	c #508FDD",
"W.	c #467DD1",
"X.	c #FEFEFE",
"Y.	c #8C9ED6",
"Z.	c #C1CFEB",
"`.	c #4586D8",
" +	c #3F82D6",
".+	c #3378D1",
"++	c #3071CB",
"@+	c #184EA2",
"#+	c #134895",
"$+	c #2767BE",
"%+	c #2C6DC6",
"&+	c #CAD5E8",
"*+	c #F6F8F8",
"=+	c #5380CE",
"-+	c #4A8BDD",
";+	c #457AD3",
">+	c #4677D0",
",+	c #B8C8E9",
"'+	c #7291D0",
")+	c #2E74CA",
"!+	c #2E73CA",
"~+	c #2D6FC6",
"{+	c #184EA3",
"]+	c #134894",
"^+	c #2566BA",
"/+	c #2666BC",
"(+	c #D1D9E8",
"_+	c #F8F8F8",
":+	c #3F74D0",
"<+	c #4585DD",
"[+	c #4277D3",
"}+	c #4174D1",
"|+	c #437BD4",
"1+	c #DDE5F3",
"2+	c #EBF0F6",
"3+	c #396CC0",
"4+	c #2A6DC2",
"5+	c #296BC0",
"6+	c #194FA2",
"7+	c #2161B3",
"8+	c #2565B9",
"9+	c #2B6AC2",
"0+	c #4673C9",
"a+	c #CDD7ED",
"b+	c #6588D3",
"c+	c #4481E0",
"d+	c #4072D5",
"e+	c #FBFBFB",
"f+	c #4374D7",
"g+	c #4783E4",
"h+	c #5880D4",
"i+	c #F3F5F8",
"j+	c #F8F9F8",
"k+	c #AFBDDF",
"l+	c #2967BE",
"m+	c #2765B8",
"n+	c #184DA0",
"o+	c #114592",
"p+	c #1E5BAB",
"q+	c #2160B2",
"r+	c #2E6BC2",
"s+	c #427FDD",
"t+	c #94ABDE",
"u+	c #D6DFF1",
"v+	c #4C7DE1",
"w+	c #4F86EC",
"x+	c #487AE3",
"y+	c #4979E0",
"z+	c #5086EC",
"A+	c #5280E3",
"B+	c #6083DA",
"C+	c #597ED7",
"D+	c #5177D2",
"E+	c #3568C7",
"F+	c #2964B9",
"G+	c #235EB2",
"H+	c #164A9F",
"I+	c #0F418F",
"J+	c #1854A3",
"K+	c #1D58A8",
"L+	c #2C66BD",
"M+	c #4776D0",
"N+	c #E4E9EF",
"O+	c #F4F5F4",
"P+	c #D2DBF0",
"Q+	c #6887DD",
"R+	c #5686F1",
"S+	c #5689F3",
"T+	c #5E81E1",
"U+	c #D0DAF1",
"V+	c #DEE4F2",
"W+	c #567EDF",
"X+	c #5087EB",
"Y+	c #3972CE",
"Z+	c #245EB1",
"`+	c #1E59A9",
" @	c #14469B",
".@	c #0E408A",
"+@	c #114C9A",
"@@	c #16509E",
"#@	c #2761B7",
"$@	c #6681C9",
"%@	c #EAECEA",
"&@	c #CFD8EA",
"*@	c #8BA1E2",
"=@	c #D0D9ED",
"-@	c #E7EBF1",
";@	c #E5E9F2",
">@	c #E4E8F1",
",@	c #E8ECF2",
"'@	c #F0F1F0",
")@	c #D2DAEB",
"!@	c #4C7EE3",
"~@	c #356CC8",
"{@	c #1E55A6",
"]@	c #1851A1",
"^@	c #124297",
"/@	c #0C3D85",
"(@	c #134C9D",
"_@	c #104893",
":@	c #205AAF",
"<@	c #3268C6",
"[@	c #5776CA",
"}@	c #4E7EE5",
"|@	c #6192FF",
"1@	c #5C7EE3",
"2@	c #EBECEA",
"3@	c #ECEDEB",
"4@	c #6183E3",
"5@	c #6087ED",
"6@	c #B5C2E4",
"7@	c #96A7DA",
"8@	c #4074D8",
"9@	c #2F65BF",
"0@	c #174E9C",
"a@	c #104897",
"b@	c #124294",
"c@	c #0F3C7F",
"d@	c #1E54A9",
"e@	c #0B418D",
"f@	c #124B9E",
"g@	c #2057AF",
"h@	c #2F64C1",
"i@	c #3D71D2",
"j@	c #497CE1",
"k@	c #4E7EE7",
"l@	c #D4D9E0",
"m@	c #D3D8E0",
"n@	c #5383EF",
"o@	c #5284EC",
"p@	c #487BE0",
"q@	c #3D70D1",
"r@	c #1F55AD",
"s@	c #0C4290",
"t@	c #104597",
"u@	c #133E89",
"v@	c #345278",
"w@	c #1A4CA4",
"x@	c #1E52A7",
"y@	c #073D8D",
"z@	c #0C4194",
"A@	c #1A4FA6",
"B@	c #275BB6",
"C@	c #3165C3",
"D@	c #396CCD",
"E@	c #3B65C6",
"F@	c #3D67C8",
"G@	c #114498",
"H@	c #2655B0",
"I@	c #2A4772",
"J@	c #284775",
"K@	c #194595",
"L@	c #204EAA",
"M@	c #2652AF",
"N@	c #2A54B2",
"O@	c #2D56B3",
"P@	c #2C56AE",
"Q@	c #2858A2",
"R@	c #245798",
"S@	c #295AA4",
"T@	c #2E59AE",
"U@	c #335AB8",
"V@	c #3960C2",
"W@	c #3E63C9",
"X@	c #3D64CA",
"Y@	c #3459B7",
"Z@	c #2F4B81",
"                                            ",
"    . + @ # $ % & * = - ; > , ' ) ! ~ {     ",
"  ] ^ / ( _ : < [ } | 1 2 3 4 5 6 7 8 9 0   ",
"  a b c d e f g h i j k l m n o p q r s t   ",
"  u v w x y z A B C D E F G H I J K L M N   ",
"  O P Q R S T U V W X Y Z `  ...D +.@.#.$.  ",
"  %.&.*.=.-.;.>.,.'.).!.~.{.].Y ^./.(._.:.  ",
"  <.[.}.|.1.2.3.4.5.6.7.8.9.0.a.b.c.d.e.f.  ",
"  g.h.i.j.k.l.0.m.n.7.7.o.7.p.q.r.s.t.u.v.  ",
"  w.x.y.z.A.B.C.D.E.F.F.m.G.H.I.J.K.L.M.N.  ",
"  O.P.Q.R.S.T.U.V.W.X.X.Y.F.G.Z.`. +.+++@+  ",
"  #+$+%+&+*+0.=+-+;+X.X.>+,+G.7.'+)+!+~+{+  ",
"  ]+^+/+(+]._+:+<+[+G.F.}+|+1+7.2+3+4+5+6+  ",
"  ]+7+8+9+0+a+b+c+d+e+7.f+g+h+i+j+k+l+m+n+  ",
"  o+p+q+r+s+t+u+v+w+x+y+z+A+B+C+D+E+F+G+H+  ",
"  I+J+K+L+M+N+O+P+Q+R+S+T+U+V+W+X+Y+Z+`+ @  ",
"  .@+@@@#@$@%@&@*@=@-@;@>@,@'@)@!@~@{@]@^@  ",
"  /@(@_@:@<@[@}@|@1@2@3@4@5@6@7@8@9@0@a@b@  ",
"  c@d@e@f@g@h@i@j@k@l@m@n@o@p@q@h@r@s@t@u@  ",
"  v@w@x@y@z@A@B@C@D@E@F@i@D@C@B@A@z@G@H@I@  ",
"    J@K@L@M@N@O@& P@Q@R@S@T@U@V@W@X@Y@Z@    ",
"                                            "};
