/* XPM */
static char * toolbuttonbg_xpm[] = {
"1 27 10 1",
" 	c None",
".	c #D6D6D7",
"+	c #B7B8B9",
"@	c #B7B7B8",
"#	c #B9B9BA",
"$	c #B8B9BA",
"%	c #B8B9B9",
"&	c #B8B8B9",
"*	c #B7B8B8",
"=	c #B6B7B8",
".",
"+",
"+",
"@",
"#",
"#",
"#",
"#",
"#",
"$",
"$",
"%",
"%",
"%",
"%",
"%",
"&",
"&",
"&",
"&",
"&",
"+",
"+",
"*",
"*",
"*",
"="};
