/* XPM */
static char * button_close_xpm[] = {
"24 54 62 1",
" 	c #323030",
".	c #363130",
"+	c #703C2B",
"@	c #AA4826",
"#	c #CD4E22",
"$	c #E15221",
"%	c #A94726",
"&	c #6E3C2B",
"*	c #D04F22",
"=	c #E95420",
"-	c #CF4F22",
";	c #343030",
">	c #964427",
",	c #954327",
"'	c #6B3B2B",
")	c #D14F22",
"!	c #E95522",
"~	c #F9D2C4",
"{	c #F29677",
"]	c #6F3C2B",
"^	c #F19676",
"/	c #FFFDFC",
"(	c #F29A7C",
"_	c #A84726",
":	c #CE4F22",
"<	c #E05221",
"[	c #F9D1C4",
"}	c #6D3C2B",
"|	c #6A3B2B",
"1	c #944327",
"2	c #693B2B",
"3	c #CC4E23",
"4	c #704232",
"5	c #AB5335",
"6	c #CF5E36",
"7	c #E36437",
"8	c #AA5334",
"9	c #6F4232",
"0	c #D25F36",
"a	c #EB6637",
"b	c #D15E36",
"c	c #6E4232",
"d	c #343130",
"e	c #974D34",
"f	c #984E34",
"g	c #964D34",
"h	c #6C4132",
"i	c #EB6739",
"j	c #714232",
"k	c #FAD7CA",
"l	c #F3A185",
"m	c #F3A184",
"n	c #FFFDFD",
"o	c #F3A589",
"p	c #A95334",
"q	c #E26337",
"r	c #FAD6CA",
"s	c #6D4132",
"t	c #6B4032",
"u	c #954D34",
"v	c #6A4032",
"w	c #CE5D36",
"                        ",
"                        ",
"                        ",
"       .+@#$$#%+.       ",
"      &*========-&      ",
"    ;>============>;    ",
"    >==============,    ",
"   &================'   ",
"  .)====!======!====*.  ",
"  +====!~{===={~!====]  ",
"  %=====^/(==^/(=====_  ",
"  :======^/(^/(======:  ",
"  <======={//{=======<  ",
"  <======={//{=======<  ",
"  :======^/(^/(======#  ",
"  _=====^/(==^/(=====_  ",
"  +====![{===={~!====&  ",
"  .*====!======!====-.  ",
"   }================|   ",
"    >==============1    ",
"    ;,============1;    ",
"      '-========-2      ",
"       .]_3$$3_].       ",
"                        ",
"                        ",
"                        ",
"                        ",
"                        ",
"                        ",
"                        ",
"       .45677684.       ",
"      90aaaaaaaabc      ",
"    deaaaaaaaaaaaaed    ",
"    faaaaaaaaaaaaaag    ",
"   9aaaaaaaaaaaaaaaah   ",
"  .0aaaaiaaaaaaiaaaa0.  ",
"  jaaaaiklaaaalkiaaaa4  ",
"  8aaaaamnoaamnoaaaaap  ",
"  6aaaaaamnomnoaaaaaa6  ",
"  qaaaaaaalnnlaaaaaaaq  ",
"  qaaaaaaalnnlaaaaaaaq  ",
"  6aaaaaamnomnoaaaaaa6  ",
"  8aaaaamnoaamnoaaaaap  ",
"  4aaaairlaaaalkiaaaa9  ",
"  .0aaaaiaaaaaaiaaaab.  ",
"   saaaaaaaaaaaaaaaat   ",
"    eaaaaaaaaaaaaaau    ",
"    dgaaaaaaaaaaaaud    ",
"      hbaaaaaaaabv      ",
"       .4pw77wp4.       ",
"                        ",
"                        ",
"                        ",
"                        "};
