/* XPM */
static char * closeO_xpm[] = {
"24 54 61 1",
" 	c #323030",
".	c #363130",
"+	c #703C2B",
"@	c #AA4826",
"#	c #CD4E22",
"$	c #E15221",
"%	c #A94726",
"&	c #6E3C2B",
"*	c #D04F22",
"=	c #E95420",
"-	c #CF4F22",
";	c #343030",
">	c #964427",
",	c #954327",
"'	c #6B3B2B",
")	c #D14F22",
"!	c #E95522",
"~	c #F9D2C4",
"{	c #F29677",
"]	c #6F3C2B",
"^	c #F19676",
"/	c #FFFDFC",
"(	c #F29A7C",
"_	c #A84726",
":	c #CE4F22",
"<	c #E05221",
"[	c #F9D1C4",
"}	c #6D3C2B",
"|	c #6A3B2B",
"1	c #944327",
"2	c #693B2B",
"3	c #CC4E23",
"4	c #36312F",
"5	c #6B3827",
"6	c #A0401F",
"7	c #C0441A",
"8	c #D34717",
"9	c #9F401F",
"0	c #693827",
"a	c #C3451A",
"b	c #DA4816",
"c	c #C2451A",
"d	c #693828",
"e	c #8E3D22",
"f	c #8D3D22",
"g	c #673828",
"h	c #C44519",
"i	c #DA4918",
"j	c #35302F",
"k	c #F5CFC2",
"l	c #E88F70",
"m	c #6A3827",
"n	c #E88E70",
"o	c #E99376",
"p	c #9E3F1F",
"q	c #C1441A",
"r	c #D14717",
"s	c #F5CEC1",
"t	c #683828",
"u	c #653728",
"v	c #8C3D22",
"                        ",
"                        ",
"                        ",
"       .+@#$$#%+.       ",
"      &*========-&      ",
"    ;>============>;    ",
"    >==============,    ",
"   &================'   ",
"  .)====!======!====*.  ",
"  +====!~{===={~!====]  ",
"  %=====^/(==^/(=====_  ",
"  :======^/(^/(======:  ",
"  <======={//{=======<  ",
"  <======={//{=======<  ",
"  :======^/(^/(======#  ",
"  _=====^/(==^/(=====_  ",
"  +====![{===={~!====&  ",
"  .*====!======!====-.  ",
"   }================|   ",
"    >==============1    ",
"    ;,============1;    ",
"      '-========-2      ",
"       .]_3$$3_].       ",
"                        ",
"                        ",
"                        ",
"                        ",
"                        ",
"                        ",
"                        ",
"       4567887954       ",
"      0abbbbbbbbcd      ",
"    ;ebbbbbbbbbbbbe;    ",
"    ebbbbbbbbbbbbbbf    ",
"   0bbbbbbbbbbbbbbbbg   ",
"  4hbbbbibbbbbbibbbbaj  ",
"  5bbbbiklbbbblkibbbbm  ",
"  9bbbbbn/obbn/obbbbbp  ",
"  qbbbbbbn/on/obbbbbbq  ",
"  rbbbbbbbl//lbbbbbbbr  ",
"  rbbbbbbbl//lbbbbbbbr  ",
"  qbbbbbbn/on/obbbbbb7  ",
"  9bbbbbn/obbn/obbbbbp  ",
"  5bbbbislbbbblkibbbb0  ",
"  4abbbbibbbbbbibbbbcj  ",
"   tbbbbbbbbbbbbbbbbu   ",
"    ebbbbbbbbbbbbbbv    ",
"    ;fbbbbbbbbbbbbv;    ",
"      gcbbbbbbbbcu      ",
"       4mp7887pm4       ",
"                        ",
"                        ",
"                        ",
"                        "};
