/* XPM */
static char * dframeATR_xpm[] = {
"31 32 6 1",
" 	c None",
".	c #D8DCD8",
"+	c #000000",
"@	c #F8FCF8",
"#	c #606060",
"$	c #C0C0C0",
"..............................+",
"@@@@@@@@@@@@@@@@@@@@@@@@@@@@@#+",
"$$$$$$$$$$$$$$$$$$$$$$$$$$$$$#+",
"$$$$$$$$$$$$$$$$$$$$$$$$$$$$$#+",
"$$$$$$$$$$$$$$$$$$$$$$$$$$$$$#+",
"$$$$$$$$$$$$$$$$$$$$$$$$$$$$$#+",
"                         $$$$#+",
"                         $$$$#+",
"                         $$$$#+",
"                         $$$$#+",
"                         $$$$#+",
"                         $$$$#+",
"                         $$$$#+",
"                         $$$$#+",
"                         $$$$#+",
"                         $$$$#+",
"                         $$$$#+",
"                         $$$$#+",
"                         $$$$#+",
"                         $$$$#+",
"                         $$$$#+",
"                         $$$$#+",
"                         $$$$#+",
"                         $$$$#+",
"                         $$$$#+",
"                         $$$$#+",
"                         $$$$#+",
"                         $$$$#+",
"                         $$$$#+",
"                         $$$$#+",
"                         $$$$#+",
"                         $$$$#+"};
