/* XPM */
static char * frameABR_xpm[] = {
"27 27 5 1",
" 	c None",
".	c #C0C0C0",
"+	c #606060",
"@	c #000000",
"#	c #F8FCF8",
"                     ....+@",
"                     ....+@",
"                     ....+@",
"                     ....+@",
"                     ....+@",
"                     ....+@",
"                     ....+@",
"                     ..####",
"                     ..++++",
"                     ....#+",
"                     ....#+",
"                     ....#+",
"                     ....#+",
"                     ....#+",
"                     ....#+",
"                     ....#+",
"                     ....#+",
"                     ....#+",
"                     ....#+",
"                     ....#+",
"                     ....#+",
".........................#+",
".........................#+",
".......#+................#+",
".......#+................#+",
"+++++++#+#################+",
"@@@@@@@#+++++++++++++++++++"};
