/* XPM */
static char * minimizeI_xpm[] = {
"22 48 4 1",
" 	c #C0C0C0",
".	c #F8FCF8",
"+	c #707070",
"@	c #595959",
"                      ",
"                      ",
"                      ",
"                      ",
"                      ",
"                      ",
"                      ",
"           ...        ",
"           . +        ",
"           .++        ",
"                      ",
"                      ",
"                      ",
"                      ",
"                      ",
"                      ",
"                      ",
"                      ",
"                      ",
"                      ",
"                      ",
"                      ",
"                      ",
"                      ",
"                      ",
"                      ",
"                      ",
"                      ",
"                      ",
"                      ",
"                      ",
"           @@@        ",
"           @ +        ",
"           @++        ",
"                      ",
"                      ",
"                      ",
"                      ",
"                      ",
"                      ",
"                      ",
"                      ",
"                      ",
"                      ",
"                      ",
"                      ",
"                      ",
"                      "};
