/* XPM */
static char * rollupI_xpm[] = {
"24 48 4 1",
" 	c #C0C0C0",
".	c #FFFFFF",
"+	c #707070",
"@	c #595959",
"                        ",
"                        ",
"                        ",
"                        ",
"                        ",
"          .             ",
"         .+             ",
"        .+++            ",
"       .+++++           ",
"      .+++++++          ",
"                        ",
"                        ",
"                        ",
"                        ",
"                        ",
"                        ",
"                        ",
"                        ",
"                        ",
"                        ",
"                        ",
"                        ",
"                        ",
"                        ",
"                        ",
"                        ",
"                        ",
"                        ",
"                        ",
"          @             ",
"         @+             ",
"        @+++            ",
"       @+++++           ",
"      @+++++++          ",
"                        ",
"                        ",
"                        ",
"                        ",
"                        ",
"                        ",
"                        ",
"                        ",
"                        ",
"                        ",
"                        ",
"                        ",
"                        ",
"                        "};
