/* XPM */
static char * titleIR_xpm[] = {
"2 21 13 1",
" 	c #606060",
".	c #F8FCF8",
"+	c #182440",
"@	c #182038",
"#	c #101C38",
"$	c #101C30",
"%	c #101830",
"&	c #101428",
"*	c #081428",
"=	c #081020",
"-	c #080C18",
";	c #080C10",
">	c #C0C0C0",
" .",
"+.",
"@.",
"@.",
"#.",
"$.",
"%.",
"&.",
"*.",
"=.",
"=.",
"-.",
"-.",
"-.",
";.",
";.",
";.",
"..",
">>",
">>",
">>"};
