/* XPM */
static char * button_minimize_xpm[] = {
"24 54 15 1",
" 	c #323030",
".	c #F7F7F7",
"+	c #333131",
"@	c #3C3A3A",
"#	c #454444",
"$	c #4B4A4A",
"%	c #4E4E4E",
"&	c #4B4B4B",
"*	c #4F4F4F",
"=	c #3B3A3A",
"-	c #424141",
";	c #3C3B3B",
">	c #4E4D4D",
",	c #3B3939",
"'	c #4A4A4A",
"                        ",
"                        ",
"                        ",
"                        ",
"                        ",
"                        ",
"                        ",
"                        ",
"                        ",
"                        ",
"                        ",
"                        ",
"                        ",
"                        ",
"                        ",
"        ........        ",
"                        ",
"                        ",
"                        ",
"                        ",
"                        ",
"                        ",
"                        ",
"                        ",
"                        ",
"                        ",
"                        ",
"                        ",
"                        ",
"                        ",
"       +@#$%%$#@+       ",
"      @&********&=      ",
"     -************-     ",
"    -**************-    ",
"   @****************=   ",
"  +&****************&+  ",
"  ;******************@  ",
"  #******************#  ",
"  $******************$  ",
"  >******************>  ",
"  >******************>  ",
"  $******************$  ",
"  #*****........*****#  ",
"  @******************@  ",
"  +&****************&+  ",
"   =****************,   ",
"    -**************-    ",
"     -************-     ",
"      =&********&,      ",
"       +@#'%%'#@+       ",
"                        ",
"                        ",
"                        ",
"                        "};
