/* XPM */
static char * p_xpm[] = {
"10 22 54 1",
" 	c None",
".	c #D9D9D9",
"+	c #DCDCDC",
"@	c #E1E1E1",
"#	c #D4D4D4",
"$	c #CFCFCF",
"%	c #C9C9C9",
"&	c #C4C4C4",
"*	c #022907",
"=	c #1D3E20",
"-	c #546A57",
";	c #0E3112",
">	c #214126",
",	c #78877A",
"'	c #C3C3C3",
")	c #BFBFBF",
"!	c #113515",
"~	c #425C46",
"{	c #103414",
"]	c #78867A",
"^	c #BBBBBB",
"/	c #032A08",
"(	c #9FA5A0",
"_	c #9EA49F",
":	c #224226",
"<	c #B8B8B8",
"[	c #16381A",
"}	c #153818",
"|	c #092D0D",
"1	c #B3B3B3",
"2	c #042A09",
"3	c #999F9A",
"4	c #979D98",
"5	c #AEAEAE",
"6	c #103314",
"7	c #3D5741",
"8	c #0F3313",
"9	c #6F7E72",
"0	c #A9A9A9",
"a	c #153719",
"b	c #3D5640",
"c	c #0A2F0F",
"d	c #1D3D21",
"e	c #69786B",
"f	c #A8A8A8",
"g	c #A0A0A0",
"h	c #1A3B1E",
"i	c #9D9D9D",
"j	c #193A1D",
"k	c #989898",
"l	c #747D76",
"m	c #79817A",
"n	c #919191",
"o	c #8E8E8E",
"..........",
"++++++++++",
"@@@@@@@@@@",
"@@@@@@@@@@",
"++++++++++",
"..........",
"##########",
"$$$$$$$$$$",
"%%%%%%%%%%",
"&&*=-;>,'&",
"))**!~{*])",
"^^*/(^_/:^",
"<<*[<<<}|<",
"11*2314/>1",
"55**678*95",
"00*abcdef0",
"gg*hgggggg",
"ii*jiiiiii",
"kklmkkkkkk",
"nnnnnnnnnn",
"oooooooooo",
"oooooooooo"};
