/* XPM */
static char * a_xpm[] = {
"10 22 52 1",
" 	c None",
".	c #D9D9D9",
"+	c #DCDCDC",
"@	c #E1E1E1",
"#	c #D4D4D4",
"$	c #CFCFCF",
"%	c #C9C9C9",
"&	c #C4C4C4",
"*	c #9FA4A8",
"=	c #415360",
"-	c #1C3243",
";	c #253A4A",
">	c #707B84",
",	c #2A404E",
"'	c #11293B",
")	c #BFBFBF",
"!	c #A0A4A7",
"~	c #152B3E",
"{	c #425360",
"]	c #485964",
"^	c #152D3D",
"/	c #BBBBBB",
"(	c #4D5C68",
"_	c #7D868C",
":	c #969B9F",
"<	c #B8B8B8",
"[	c #324553",
"}	c #AFB0B1",
"|	c #203746",
"1	c #B3B3B3",
"2	c #485864",
"3	c #7E868C",
"4	c #95999D",
"5	c #AEAEAE",
"6	c #8F9497",
"7	c #142A3D",
"8	c #122A3B",
"9	c #3F505C",
"0	c #445460",
"a	c #162D3F",
"b	c #A9A9A9",
"c	c #888D91",
"d	c #384957",
"e	c #193041",
"f	c #243948",
"g	c #677279",
"h	c #263C4A",
"i	c #A0A0A0",
"j	c #9D9D9D",
"k	c #989898",
"l	c #919191",
"m	c #8E8E8E",
"..........",
"++++++++++",
"@@@@@@@@@@",
"@@@@@@@@@@",
"++++++++++",
"..........",
"##########",
"$$$$$$$$$$",
"%%%%%%%%%%",
"&&*=-;>,'&",
")!~'{]^'')",
"/('_//:''/",
"<['}<<<|'<",
"12'3114''1",
"567890a''5",
"bbcdefgh'b",
"iiiiiiiiii",
"jjjjjjjjjj",
"kkkkkkkkkk",
"llllllllll",
"mmmmmmmmmm",
"mmmmmmmmmm"};
