/* XPM */
static char * n0_xpm[] = {
"10 22 56 1",
" 	c None",
".	c #D9D9D9",
"+	c #DCDCDC",
"@	c #E1E1E1",
"#	c #A8AEB2",
"$	c #455764",
"%	c #203646",
"&	c #1F3446",
"*	c #435562",
"=	c #A3AAAF",
"-	c #D4D4D4",
";	c #A3A9AE",
">	c #11293B",
",	c #223848",
"'	c #9DA3A8",
")	c #CFCFCF",
"!	c #3F525E",
"~	c #737F87",
"{	c #CECECE",
"]	c #7A848B",
"^	c #3C4F5C",
"/	c #C9C9C9",
"(	c #1D3243",
"_	c #C1C2C3",
":	c #1A3142",
"<	c #C4C4C4",
"[	c #152D3D",
"}	c #BFBFBF",
"|	c #BBBBBB",
"1	c #B8B8B8",
"2	c #1B3141",
"3	c #AFB0B1",
"4	c #B0B1B2",
"5	c #B3B3B3",
"6	c #354856",
"7	c #647078",
"8	c #B2B2B2",
"9	c #69737C",
"0	c #334554",
"a	c #AEAEAE",
"b	c #83898E",
"c	c #142B3D",
"d	c #1D3343",
"e	c #1E3445",
"f	c #122A3B",
"g	c #7E858B",
"h	c #A9A9A9",
"i	c #8C9093",
"j	c #3E4F5B",
"k	c #1B3041",
"l	c #374955",
"m	c #A0A0A0",
"n	c #9D9D9D",
"o	c #989898",
"p	c #919191",
"q	c #8E8E8E",
"..........",
"++++++++++",
"@@@@@@@@@@",
"@@@@@@@@@@",
"++++++++++",
"..#$%&*=..",
"-;>>%,>>'-",
")!>~{{]>^)",
"/(>_//_>:/",
"<[><<<<>[<",
"}[>}}}}>[}",
"|[>||||>[|",
"12>3114>21",
"56>7889>05",
"abc>de>fga",
"hhij%klbhh",
"mmmmmmmmmm",
"nnnnnnnnnn",
"oooooooooo",
"pppppppppp",
"qqqqqqqqqq",
"qqqqqqqqqq"};
