/* XPM */
static char * n1_xpm[] = {
"10 22 27 1",
" 	c None",
".	c #D9D9D9",
"+	c #DCDCDC",
"@	c #E1E1E1",
"#	c #90999F",
"$	c #11293B",
"%	c #162D3E",
"&	c #D4D4D4",
"*	c #969EA4",
"=	c #2B3F50",
"-	c #CFCFCF",
";	c #C9C9C9",
">	c #162D3D",
",	c #C4C4C4",
"'	c #152D3D",
")	c #BFBFBF",
"!	c #BBBBBB",
"~	c #B8B8B8",
"{	c #152C3D",
"]	c #B3B3B3",
"^	c #AEAEAE",
"/	c #A9A9A9",
"(	c #A0A0A0",
"_	c #9D9D9D",
":	c #989898",
"<	c #919191",
"[	c #8E8E8E",
"..........",
"++++++++++",
"@@@@@@@@@@",
"@@@@@@@@@@",
"++++++++++",
"...#$$%...",
"&&&*=$%&&&",
"-----$%---",
";;;;;$>;;;",
",,,,,$',,,",
")))))$')))",
"!!!!!$'!!!",
"~~~~~${~~~",
"]]]]]${]]]",
"^^^^^${^^^",
"/////${///",
"((((((((((",
"__________",
"::::::::::",
"<<<<<<<<<<",
"[[[[[[[[[[",
"[[[[[[[[[["};
