/* XPM */
static char * n5_xpm[] = {
"10 22 68 1",
" 	c None",
".	c #D9D9D9",
"+	c #DCDCDC",
"@	c #E1E1E1",
"#	c #C5C7C9",
"$	c #11293B",
"%	c #1F3646",
"&	c #D4D4D4",
"*	c #9CA3A7",
"=	c #1D3243",
"-	c #283C4D",
";	c #354857",
">	c #CFCFCF",
",	c #737F87",
"'	c #8F979D",
")	c #C9C9C9",
"!	c #4D5D69",
"~	c #475864",
"{	c #364958",
"]	c #54636E",
"^	c #ADB0B3",
"/	c #C4C4C4",
"(	c #2A3E4E",
"_	c #172E3F",
":	c #A8ABAE",
"<	c #BFBFBF",
"[	c #BEBEBE",
"}	c #64707A",
"|	c #384B58",
"1	c #93999E",
"2	c #B0B2B4",
"3	c #4A5A66",
"4	c #4B5A66",
"5	c #BBBBBB",
"6	c #A7AAAC",
"7	c #243949",
"8	c #B8B8B8",
"9	c #8B9195",
"0	c #57656E",
"a	c #80888E",
"b	c #ABADAE",
"c	c #223748",
"d	c #B3B3B3",
"e	c #878D92",
"f	c #1E3445",
"g	c #A6A8A9",
"h	c #B2B2B2",
"i	c #5D6A73",
"j	c #455562",
"k	c #AEAEAE",
"l	c #ADADAD",
"m	c #42525E",
"n	c #162D3F",
"o	c #1E3444",
"p	c #152C3D",
"q	c #94989A",
"r	c #A9A9A9",
"s	c #A7A7A7",
"t	c #5C6871",
"u	c #293D4C",
"v	c #183041",
"w	c #384957",
"x	c #8C9093",
"y	c #A0A0A0",
"z	c #9D9D9D",
"A	c #989898",
"B	c #919191",
"C	c #8E8E8E",
"..........",
"++++++++++",
"@@@@@@@@@@",
"@@@@@@@@@@",
"++++++++++",
"..#$$$$%..",
"&&*$=--;&&",
">>,$'>>>>>",
"))!$~{]^))",
"//($$$$_:/",
"<[}|123$4<",
"5555556$75",
"890a88b$c8",
"de$fghi$jd",
"klm$no$pqk",
"rrstuvwxrr",
"yyyyyyyyyy",
"zzzzzzzzzz",
"AAAAAAAAAA",
"BBBBBBBBBB",
"CCCCCCCCCC",
"CCCCCCCCCC"};
