/* XPM */
static char * n7_xpm[] = {
"10 22 49 1",
" 	c None",
".	c #D9D9D9",
"+	c #DCDCDC",
"@	c #E1E1E1",
"#	c #CFD0D1",
"$	c #11293B",
"%	c #939BA1",
"&	c #D4D4D4",
"*	c #CBCCCD",
"=	c #283C4D",
"-	c #162D3E",
";	c #90989E",
">	c #CFCFCF",
",	c #C5C6C7",
"'	c #1B3243",
")	c #142B3D",
"!	c #BCBEC0",
"~	c #C9C9C9",
"{	c #778189",
"]	c #53626E",
"^	c #C4C4C4",
"/	c #C0C1C1",
"(	c #253A4A",
"_	c #9EA3A7",
":	c #BFBFBF",
"<	c #828A90",
"[	c #384B58",
"}	c #BBBBBB",
"|	c #BABABA",
"1	c #334653",
"2	c #B8B8B8",
"3	c #8D9398",
"4	c #233848",
"5	c #B5B5B5",
"6	c #B3B3B3",
"7	c #41525E",
"8	c #68727B",
"9	c #AEAEAE",
"0	c #94989A",
"a	c #152D3F",
"b	c #A2A4A5",
"c	c #A9A9A9",
"d	c #4C5B66",
"e	c #4D5C66",
"f	c #A0A0A0",
"g	c #9D9D9D",
"h	c #989898",
"i	c #919191",
"j	c #8E8E8E",
"..........",
"++++++++++",
"@@@@@@@@@@",
"@@@@@@@@@@",
"++++++++++",
".#$$$$$$%.",
"&*====-$;&",
">>>>>,')!>",
"~~~~~{$]~~",
"^^^^/($_^^",
"::::<$[:::",
"}}}|1$<}}}",
"2223$45222",
"6667$86666",
"990$ab9999",
"ccd$eccccc",
"ffffffffff",
"gggggggggg",
"hhhhhhhhhh",
"iiiiiiiiii",
"jjjjjjjjjj",
"jjjjjjjjjj"};
