/* XPM */
static char * n8_xpm[] = {
"10 22 70 1",
" 	c None",
".	c #D9D9D9",
"+	c #DCDCDC",
"@	c #E1E1E1",
"#	c #D3D3D4",
"$	c #7F6E88",
"%	c #412551",
"&	c #40234F",
"*	c #766481",
"=	c #D0CFD1",
"-	c #D4D4D4",
";	c #7C6B86",
">	c #321344",
",	c #351746",
"'	c #361848",
")	c #73607E",
"!	c #CFCFCF",
"~	c #432753",
"{	c #B1ACB5",
"]	c #B6B2B9",
"^	c #3C214E",
"/	c #C9C9C9",
"(	c #482D57",
"_	c #988E9D",
":	c #9C93A1",
"<	c #442953",
"[	c #C4C4C4",
"}	c #948A9A",
"|	c #8E8395",
"1	c #BFBFBF",
"2	c #A8A3AB",
"3	c #462C56",
"4	c #3A1D4B",
"5	c #3B1E4B",
"6	c #A6A0A9",
"7	c #BBBBBB",
"8	c #533C61",
"9	c #76667F",
"0	c #B9B8B9",
"a	c #75667E",
"b	c #533B60",
"c	c #B8B8B8",
"d	c #3B1F4D",
"e	c #B0AEB0",
"f	c #AFADB0",
"g	c #3D1F4C",
"h	c #B3B3B3",
"i	c #533C60",
"j	c #74657D",
"k	c #B1B1B2",
"l	c #76677E",
"m	c #543D61",
"n	c #AEAEAE",
"o	c #948E98",
"p	c #331646",
"q	c #3C1E4B",
"r	c #3C1F4C",
"s	c #321545",
"t	c #938D97",
"u	c #A9A9A9",
"v	c #928D96",
"w	c #543E61",
"x	c #3A1E4B",
"y	c #543D60",
"z	c #928C95",
"A	c #A0A0A0",
"B	c #9D9D9D",
"C	c #989898",
"D	c #919191",
"E	c #8E8E8E",
"..........",
"++++++++++",
"@@@@@@@@@@",
"@@@@@@@@@@",
"++++++++++",
"..#$%&*=..",
"--;>,'>)--",
"!!~>{]>^!!",
"//(>_:><//",
"[[}>>>>|[[",
"123>45><61",
"78>900a>b7",
"cd>eccf>gc",
"hi>jkkl>mh",
"nop>qr>stn",
"uuvw5xyzuu",
"AAAAAAAAAA",
"BBBBBBBBBB",
"CCCCCCCCCC",
"DDDDDDDDDD",
"EEEEEEEEEE",
"EEEEEEEEEE"};
