/* XPM */
static char * slash_xpm[] = {
"8 22 46 1",
" 	c None",
".	c #D9D9D9",
"+	c #DCDCDC",
"@	c #E1E1E1",
"#	c #D4D4D4",
"$	c #CBCACC",
"%	c #391B4A",
"&	c #BEBAC0",
"*	c #CFCFCF",
"=	c #93879A",
"-	c #583F65",
";	c #C9C9C9",
">	c #573F65",
",	c #8E8295",
"'	c #C4C4C4",
")	c #B1ADB4",
"!	c #381948",
"~	c #BCBABC",
"{	c #BFBFBF",
"]	c #796982",
"^	c #64506F",
"/	c #BBBBBB",
"(	c #BABABA",
"_	c #432954",
":	c #958D9A",
"<	c #B8B8B8",
"[	c #98909C",
"}	c #402550",
"|	c #B6B5B6",
"1	c #B3B3B3",
"2	c #64516F",
"3	c #6F5F78",
"4	c #AEAEAE",
"5	c #A8A8A9",
"6	c #371B48",
"7	c #9B969D",
"8	c #A9A9A9",
"9	c #7F7485",
"0	c #4C345A",
"a	c #A0A0A0",
"b	c #847C88",
"c	c #88818B",
"d	c #9D9D9D",
"e	c #989898",
"f	c #919191",
"g	c #8E8E8E",
"........",
"++++++++",
"@@@@@@@@",
"@@@@@@@@",
"++++++++",
"........",
"####$%&#",
"****=-**",
";;;;>,;;",
"''')!~''",
"{{{]^{{{",
"//(_:///",
"<<[}|<<<",
"11231111",
"45674444",
"89088888",
"abcaaaaa",
"dddddddd",
"eeeeeeee",
"ffffffff",
"gggggggg",
"gggggggg"};
