/* XPM */
static char * expand_xpm[] = {
"10 20 27 1",
" 	c None",
".	c #7E5D91",
"+	c #7B598E",
"@	c #321344",
"#	c #76538A",
"$	c #E1E1E1",
"%	c #714D85",
"&	c #DCDCDC",
"*	c #6B4880",
"=	c #D9D9D9",
"-	c #66437B",
";	c #D4D4D4",
">	c #623E77",
",	c #CFCFCF",
"'	c #5F3A74",
")	c #C9C9C9",
"!	c #5A366F",
"~	c #C4C4C4",
"{	c #55316A",
"]	c #BFBFBF",
"^	c #502C64",
"/	c #BDBDBD",
"(	c #B8B8B8",
"_	c #B3B3B3",
":	c #AEAEAE",
"<	c #A9A9A9",
"[	c #A4A4A4",
"..........",
"++@@@@@@++",
"##@$$$$@##",
"%%@&&&&@%%",
"**@====@**",
"--@;;;;@--",
">>@,,,,@>>",
"''@))))@''",
"!!@~~~~@!!",
"{{@]]]]@{{",
"^^@////@^^",
"^^@((((@^^",
"^^@____@^^",
"^^@::::@^^",
"^^@<<<<@^^",
"^^@[[[[@^^",
"^^@[[[[@^^",
"^^@[[[[@^^",
"^^@@@@@@^^",
"^^^^^^^^^^"};
