/* XPM */
static char * maximizeO_xpm[] = {
"24 54 17 1",
" 	c #323030",
".	c #F7F7F7",
"+	c #333131",
"@	c #403F3F",
"#	c #4D4D4D",
"$	c #555555",
"%	c #5A5A5A",
"&	c #403E3E",
"*	c #565656",
"=	c #5C5C5C",
"-	c #323131",
";	c #494848",
">	c #3F3E3E",
",	c #4D4C4C",
"'	c #565555",
")	c #3F3D3D",
"!	c #484848",
"                        ",
"                        ",
"                        ",
"                        ",
"                        ",
"                        ",
"                        ",
"                        ",
"                        ",
"        ........        ",
"        .      .        ",
"        .      .        ",
"        .      .        ",
"        .      .        ",
"        .      .        ",
"        .      .        ",
"        ........        ",
"                        ",
"                        ",
"                        ",
"                        ",
"                        ",
"                        ",
"                        ",
"                        ",
"                        ",
"                        ",
"                        ",
"                        ",
"                        ",
"       +@#$%%$#@+       ",
"      &*========*&      ",
"    -;============;-    ",
"    ;==============;    ",
"   &================>   ",
"  +*================*+  ",
"  @=====........=====@  ",
"  #=====.======.=====,  ",
"  '=====.======.====='  ",
"  %=====.======.=====%  ",
"  %=====.======.=====%  ",
"  '=====.======.=====$  ",
"  ,=====.======.=====,  ",
"  @=====........=====&  ",
"  +*================*+  ",
"   >================)   ",
"    ;==============!    ",
"    -;============!-    ",
"      >*========*)      ",
"       +@,$%%$,@+       ",
"                        ",
"                        ",
"                        ",
"                        "};
